,0,1,2,3,4
0,17,280,175,430,37381.txt
0,0,236,48,472,37381.txt
0,18,281,173,428,37386.txt
0,0,238,51,468,37386.txt
0,18,280,172,430,37387.txt
0,0,238,50,470,37387.txt
0,17,280,173,430,37388.txt
0,0,238,49,467,37388.txt
0,16,280,174,428,37389.txt
0,0,238,49,466,37389.txt
0,18,281,172,428,37390.txt
0,0,238,50,460,37390.txt
0,17,282,172,427,37391.txt
0,0,238,50,465,37391.txt
0,17,282,173,427,37392.txt
0,0,236,51,463,37392.txt
0,17,282,172,427,37393.txt
0,0,238,51,467,37393.txt
0,15,282,174,426,37394.txt
0,0,238,50,464,37394.txt
0,12,282,177,428,37395.txt
0,0,239,50,467,37395.txt
0,11,282,177,429,37396.txt
0,0,238,50,463,37396.txt
0,12,282,176,430,37397.txt
0,0,239,50,469,37397.txt
0,14,280,173,432,37398.txt
0,0,238,50,472,37398.txt
0,15,280,172,432,37399.txt
0,0,238,50,473,37399.txt
0,15,281,171,432,37400.txt
0,0,238,50,468,37400.txt
0,15,282,169,430,37401.txt
0,0,238,50,469,37401.txt
0,16,280,167,433,37402.txt
0,0,239,50,464,37402.txt
0,15,277,168,436,37403.txt
0,0,237,50,473,37403.txt
0,17,276,164,436,37404.txt
0,0,238,50,470,37404.txt
0,16,278,164,436,37405.txt
0,0,238,50,474,37405.txt
0,15,276,165,438,37406.txt
0,0,238,51,472,37406.txt
0,16,275,163,438,37407.txt
0,0,238,51,472,37407.txt
0,16,275,162,438,37408.txt
0,0,238,50,473,37408.txt
0,17,275,160,438,37409.txt
0,0,238,51,470,37409.txt
0,16,274,160,440,37410.txt
0,0,237,50,473,37410.txt
0,18,275,157,438,37411.txt
0,0,238,50,473,37411.txt
0,17,276,158,436,37412.txt
0,0,239,51,469,37412.txt
0,17,276,157,436,37413.txt
0,0,238,51,464,37413.txt
0,18,275,154,437,37414.txt
0,0,238,50,470,37414.txt
0,17,275,155,437,37415.txt
0,0,238,50,472,37415.txt
0,17,274,154,438,37416.txt
0,0,240,49,471,37416.txt
0,17,274,154,439,37417.txt
0,0,240,49,471,37417.txt
0,18,274,152,438,37418.txt
0,0,241,49,469,37418.txt
0,19,274,151,438,37419.txt
0,0,238,49,473,37419.txt
0,18,274,152,439,37420.txt
0,0,238,49,468,37420.txt
0,18,274,151,439,37421.txt
0,0,238,50,468,37421.txt
0,18,274,152,439,37422.txt
0,0,240,50,471,37422.txt
0,18,274,151,440,37423.txt
0,0,240,50,462,37423.txt
0,17,274,151,438,37424.txt
0,0,241,51,461,37424.txt
0,17,274,151,439,37425.txt
0,0,240,52,466,37425.txt
0,17,274,150,438,37426.txt
0,0,241,53,462,37426.txt
0,18,272,148,440,37427.txt
0,0,239,52,473,37427.txt
0,17,273,150,440,37428.txt
0,0,240,53,466,37428.txt
0,17,273,150,440,37429.txt
0,0,242,52,460,37429.txt
0,17,272,149,440,37430.txt
0,0,241,54,466,37430.txt
0,17,273,149,440,37431.txt
0,0,241,55,461,37431.txt
0,17,274,149,438,37432.txt
0,0,241,56,463,37432.txt
0,18,272,148,440,37433.txt
0,0,241,56,462,37433.txt
0,17,274,148,438,37434.txt
0,0,242,56,458,37434.txt
0,18,272,148,440,37435.txt
0,0,242,55,460,37435.txt
0,18,274,148,438,37436.txt
0,0,242,55,458,37436.txt
0,17,273,148,439,37437.txt
0,0,240,53,462,37437.txt
0,17,273,149,440,37438.txt
0,0,239,54,469,37438.txt
0,16,273,149,439,37439.txt
0,0,240,54,464,37439.txt
0,18,273,148,439,37440.txt
0,0,239,54,463,37440.txt
0,17,274,149,438,37441.txt
0,0,240,53,460,37441.txt
0,16,273,149,440,37442.txt
0,0,236,54,474,37442.txt
0,18,273,148,440,37443.txt
0,0,240,53,470,37443.txt
0,18,274,148,438,37444.txt
0,0,239,53,470,37444.txt
0,17,273,149,440,37445.txt
0,0,238,52,471,37445.txt
0,18,273,148,439,37446.txt
0,0,237,51,471,37446.txt
0,16,274,150,438,37447.txt
0,0,238,51,470,37447.txt
0,18,274,149,438,37448.txt
0,0,238,51,471,37448.txt
0,18,274,148,438,37449.txt
0,0,239,50,466,37449.txt
0,16,272,150,440,37450.txt
0,0,234,50,476,37450.txt
0,18,274,148,438,37451.txt
0,0,230,49,420,37451.txt
0,16,273,150,439,37452.txt
0,0,234,48,470,37452.txt
0,18,272,148,442,37453.txt
0,0,233,48,467,37453.txt
0,18,271,148,442,37454.txt
0,0,233,48,475,37454.txt
0,17,272,148,440,37455.txt
0,0,228,49,426,37455.txt
0,17,271,147,441,37456.txt
0,0,230,50,479,37456.txt
0,16,270,148,444,37457.txt
0,0,232,51,482,37457.txt
0,17,268,147,446,37458.txt
0,0,229,54,487,37458.txt
0,14,268,149,446,37459.txt
0,0,229,58,489,37459.txt
0,17,266,146,446,37460.txt
0,0,227,61,491,37460.txt
0,29,268,133,440,37461.txt
0,0,232,70,488,37461.txt
0,0,233,89,487,37462.txt
0,44,268,118,436,37462.txt
0,0,232,100,488,37463.txt
0,51,270,110,434,37463.txt
0,1,234,111,486,37464.txt
0,55,270,105,435,37464.txt
0,1,236,119,484,37465.txt
0,59,269,102,435,37465.txt
0,1,238,119,482,37466.txt
0,63,268,98,438,37466.txt
0,1,238,111,481,37467.txt
0,71,267,92,437,37467.txt
0,0,237,109,481,37468.txt
0,76,264,96,438,37468.txt
0,0,240,111,478,37469.txt
0,86,270,93,434,37469.txt
0,0,238,124,482,37470.txt
0,98,270,91,434,37470.txt
0,0,237,135,482,37471.txt
0,104,269,93,436,37471.txt
0,0,234,144,486,37472.txt
0,106,270,105,435,37472.txt
0,0,237,156,480,37473.txt
0,113,272,106,434,37473.txt
0,0,226,167,494,37474.txt
0,76,267,149,448,37474.txt
0,0,234,219,482,37475.txt
0,0,231,216,485,37476.txt
0,3,226,227,494,37477.txt
0,2,222,230,496,37478.txt
0,17,225,217,493,37479.txt
0,17,225,213,492,37480.txt
0,43,225,192,493,37481.txt
0,43,225,192,495,37482.txt
0,31,224,211,494,37483.txt
0,29,230,256,490,37484.txt
0,32,231,270,489,37485.txt
0,43,233,244,485,37486.txt
0,49,234,227,484,37487.txt
0,55,230,223,490,37488.txt
0,37,450,187,268,37488.txt
0,51,232,233,487,37489.txt
0,43,434,185,284,37489.txt
0,61,230,233,490,37490.txt
0,84,225,216,493,37491.txt
0,62,434,168,282,37491.txt
0,94,222,214,496,37492.txt
0,68,318,162,389,37492.txt
0,109,216,211,504,37493.txt
0,85,311,141,398,37493.txt
0,130,216,197,502,37494.txt
0,95,307,130,405,37494.txt
0,187,212,155,508,37495.txt
0,112,296,107,418,37495.txt
0,178,211,170,507,37496.txt
0,125,304,92,412,37496.txt
0,203,209,152,509,37497.txt
0,130,288,101,428,37497.txt
0,210,210,155,508,37498.txt
0,134,268,98,446,37498.txt
0,215,205,159,515,37499.txt
0,139,275,117,440,37499.txt
0,224,203,157,517,37500.txt
0,142,269,120,446,37500.txt
0,226,206,163,512,37501.txt
0,145,270,127,444,37501.txt
0,232,208,210,509,37502.txt
0,146,264,142,448,37502.txt
0,232,210,258,510,37503.txt
0,148,268,144,444,37503.txt
0,234,210,276,510,37504.txt
0,150,270,142,440,37504.txt
0,232,214,288,506,37505.txt
0,152,270,147,440,37505.txt
0,230,216,295,504,37506.txt
0,152,270,155,440,37506.txt
0,234,218,262,501,37507.txt
0,152,268,160,444,37507.txt
0,235,220,256,500,37508.txt
0,154,268,159,443,37508.txt
0,235,220,263,499,37509.txt
0,154,267,164,445,37509.txt
0,233,221,260,498,37510.txt
0,153,266,169,447,37510.txt
0,155,263,171,449,37511.txt
0,246,218,245,502,37511.txt
0,158,260,174,453,37512.txt
0,253,216,248,504,37512.txt
0,273,213,241,506,37513.txt
0,160,256,174,460,37513.txt
0,290,212,236,506,37514.txt
0,164,254,173,461,37514.txt
0,317,212,218,506,37515.txt
0,170,252,170,462,37515.txt
0,179,251,166,464,37516.txt
0,345,212,201,506,37516.txt
0,187,250,163,466,37517.txt
0,370,207,185,510,37517.txt
0,198,248,154,470,37518.txt
0,402,206,159,512,37518.txt
0,422,205,146,511,37519.txt
0,212,248,146,468,37519.txt
0,434,205,141,510,37520.txt
0,222,246,139,470,37520.txt
0,231,247,138,469,37521.txt
0,441,203,141,513,37521.txt
0,237,246,136,470,37522.txt
0,440,204,162,512,37522.txt
0,242,246,138,470,37523.txt
0,439,204,197,512,37523.txt
0,245,246,156,470,37524.txt
0,436,207,284,510,37524.txt
0,246,245,176,471,37525.txt
0,440,208,243,510,37525.txt
0,246,246,197,469,37526.txt
0,444,211,236,506,37526.txt
0,444,211,248,507,37527.txt
0,245,246,218,470,37527.txt
0,246,246,228,470,37528.txt
0,446,212,240,507,37528.txt
0,247,248,235,468,37529.txt
0,447,210,243,509,37529.txt
0,248,250,240,467,37530.txt
0,451,207,239,512,37530.txt
0,248,251,242,467,37531.txt
0,457,202,231,516,37531.txt
0,1227,0,52,697,37531.txt
0,248,254,235,464,37532.txt
0,477,198,219,520,37532.txt
0,1210,0,70,692,37532.txt
0,247,254,252,464,37533.txt
0,501,197,208,521,37533.txt
0,1188,0,92,718,37533.txt
0,245,255,256,463,37534.txt
0,522,193,202,525,37534.txt
0,1156,3,124,708,37534.txt
0,246,256,256,463,37535.txt
0,547,190,184,527,37535.txt
0,1124,0,156,714,37535.txt
0,249,255,253,465,37536.txt
0,572,187,168,531,37536.txt
0,1096,1,184,714,37536.txt
0,252,255,250,465,37537.txt
0,603,188,148,528,37537.txt
0,1064,1,216,714,37537.txt
0,616,184,149,532,37538.txt
0,257,253,246,467,37538.txt
0,1041,0,238,714,37538.txt
0,628,183,151,533,37539.txt
0,1018,0,262,714,37539.txt
0,265,252,238,466,37539.txt
0,1002,0,278,714,37540.txt
0,276,252,225,466,37540.txt
0,635,183,158,534,37540.txt
0,992,0,288,714,37541.txt
0,285,250,215,468,37541.txt
0,643,184,163,532,37541.txt
0,293,252,209,466,37542.txt
0,980,0,300,714,37542.txt
0,647,186,188,532,37542.txt
0,310,250,191,468,37543.txt
0,971,0,308,714,37543.txt
0,650,186,221,532,37543.txt
0,326,252,179,466,37544.txt
0,950,0,330,714,37544.txt
0,652,187,281,531,37544.txt
0,346,252,163,467,37545.txt
0,940,0,338,716,37545.txt
0,651,190,267,528,37545.txt
0,366,251,148,467,37546.txt
0,648,192,260,526,37546.txt
0,922,0,352,714,37546.txt
0,392,250,128,469,37547.txt
0,647,195,274,522,37547.txt
0,904,1,364,713,37547.txt
0,656,196,260,522,37548.txt
0,403,250,121,468,37548.txt
0,898,0,356,715,37548.txt
0,408,249,122,469,37549.txt
0,656,194,264,524,37549.txt
0,875,0,366,716,37549.txt
0,414,250,130,466,37550.txt
0,654,194,266,524,37550.txt
0,858,0,330,713,37550.txt
0,417,250,147,468,37551.txt
0,670,192,246,526,37551.txt
0,846,0,296,714,37551.txt
0,418,250,174,470,37552.txt
0,688,191,224,526,37552.txt
0,826,0,265,712,37552.txt
0,420,249,188,471,37553.txt
0,815,0,240,715,37553.txt
0,710,190,194,527,37553.txt
0,419,250,202,468,37554.txt
0,740,0,281,716,37554.txt
0,792,188,59,322,37554.txt
0,419,250,209,469,37555.txt
0,767,0,235,716,37555.txt
0,418,252,211,468,37556.txt
0,763,0,222,717,37556.txt
0,419,251,211,469,37557.txt
0,742,0,252,717,37557.txt
0,420,250,218,470,37558.txt
0,726,0,236,714,37558.txt
0,922,278,90,399,37558.txt
0,423,248,189,469,37559.txt
0,710,0,238,714,37559.txt
0,906,190,120,522,37559.txt
0,423,246,189,472,37560.txt
0,697,0,246,716,37560.txt
0,899,181,136,534,37560.txt
0,426,243,186,474,37561.txt
0,665,4,273,710,37561.txt
0,888,181,167,534,37561.txt
0,433,238,181,480,37562.txt
0,878,182,212,530,37562.txt
0,634,1,306,716,37562.txt
0,440,234,182,484,37563.txt
0,885,185,249,533,37563.txt
0,614,6,318,709,37563.txt
0,451,232,176,484,37564.txt
0,892,187,257,531,37564.txt
0,616,7,288,713,37564.txt
0,462,229,170,487,37565.txt
0,892,186,255,532,37565.txt
0,598,10,315,706,37565.txt
0,1198,296,82,419,37565.txt
0,888,189,258,528,37566.txt
0,480,229,162,486,37566.txt
0,590,12,316,704,37566.txt
0,1188,302,92,412,37566.txt
0,888,187,266,531,37567.txt
0,496,226,150,490,37567.txt
0,579,13,304,703,37567.txt
0,1182,304,98,410,37567.txt
0,890,186,268,532,37568.txt
0,1178,313,102,403,37568.txt
0,568,15,308,701,37568.txt
0,512,222,132,492,37568.txt
0,884,182,276,536,37569.txt
0,539,229,86,470,37569.txt
0,560,14,298,702,37569.txt
0,1176,315,104,400,37569.txt
0,903,181,260,539,37570.txt
0,544,14,284,702,37570.txt
0,1176,314,104,400,37570.txt
0,921,178,242,540,37571.txt
0,1175,314,104,402,37571.txt
0,542,14,252,704,37571.txt
0,942,174,236,543,37572.txt
0,1175,314,104,402,37572.txt
0,534,12,233,704,37572.txt
0,968,172,228,545,37573.txt
0,1169,316,110,400,37573.txt
0,522,14,238,705,37573.txt
0,998,170,216,548,37574.txt
0,497,18,288,699,37574.txt
0,1169,344,108,370,37574.txt
0,1025,168,210,550,37575.txt
0,588,227,218,491,37575.txt
0,476,18,200,702,37575.txt
0,1169,308,111,408,37575.txt
0,584,228,240,491,37576.txt
0,450,18,217,697,37576.txt
0,1035,168,242,550,37576.txt
0,577,230,263,490,37577.txt
0,1045,166,220,550,37577.txt
0,424,27,232,687,37577.txt
0,1165,511,88,204,37577.txt
0,578,230,272,490,37578.txt
0,1056,166,204,551,37578.txt
0,406,30,236,685,37578.txt
0,576,232,278,488,37579.txt
0,1067,165,204,551,37579.txt
0,380,36,250,679,37579.txt
0,574,232,286,488,37580.txt
0,368,37,250,678,37580.txt
0,1075,168,202,547,37580.txt
0,569,235,299,485,37581.txt
0,350,40,258,675,37581.txt
0,1087,170,193,548,37581.txt
0,1039,476,214,232,37581.txt
0,566,234,306,486,37582.txt
0,332,45,266,667,37582.txt
0,1101,176,179,540,37582.txt
0,1019,444,234,265,37582.txt
0,320,52,266,660,37583.txt
0,565,231,285,488,37583.txt
0,1004,327,252,381,37583.txt
0,1113,175,166,543,37583.txt
0,311,55,266,662,37584.txt
0,576,230,272,488,37584.txt
0,1124,176,156,544,37584.txt
0,996,330,258,378,37584.txt
0,304,62,262,655,37585.txt
0,588,230,260,488,37585.txt
0,1130,179,150,538,37585.txt
0,991,330,258,380,37585.txt
0,296,71,259,645,37586.txt
0,602,228,244,490,37586.txt
0,1136,178,144,539,37586.txt
0,986,334,252,376,37586.txt
0,292,74,252,641,37587.txt
0,616,224,225,494,37587.txt
0,1134,178,146,540,37587.txt
0,986,336,194,368,37587.txt
0,290,78,244,636,37588.txt
0,634,223,210,495,37588.txt
0,986,336,207,368,37588.txt
0,1125,179,155,538,37588.txt
0,286,78,238,637,37589.txt
0,654,220,188,498,37589.txt
0,985,334,208,372,37589.txt
0,1142,178,138,541,37589.txt
0,287,78,227,638,37590.txt
0,676,218,172,499,37590.txt
0,984,334,207,372,37590.txt
0,1151,172,129,548,37590.txt
0,280,81,226,635,37591.txt
0,704,217,152,499,37591.txt
0,985,334,186,372,37591.txt
0,1195,172,85,548,37591.txt
0,274,84,223,632,37592.txt
0,984,332,164,372,37592.txt
0,732,216,135,500,37592.txt
0,1210,170,70,550,37592.txt
0,263,87,225,628,37593.txt
0,741,213,138,503,37593.txt
0,976,334,150,370,37593.txt
0,1220,167,60,553,37593.txt
0,251,89,231,627,37594.txt
0,749,214,142,502,37594.txt
0,970,332,132,373,37594.txt
0,1228,164,52,358,37594.txt
0,239,92,238,623,37595.txt
0,756,215,148,502,37595.txt
0,962,332,112,371,37595.txt
0,1238,154,42,528,37595.txt
0,231,94,240,620,37596.txt
0,762,215,178,501,37596.txt
0,952,331,103,371,37596.txt
0,225,95,240,620,37597.txt
0,772,214,190,502,37597.txt
0,940,332,114,371,37597.txt
0,214,98,244,616,37598.txt
0,776,215,240,502,37598.txt
0,933,333,121,369,37598.txt
0,198,102,254,612,37599.txt
0,780,215,282,503,37599.txt
0,925,336,141,369,37599.txt
0,177,105,270,610,37600.txt
0,782,214,282,505,37600.txt
0,866,338,225,374,37600.txt
0,171,110,269,606,37601.txt
0,785,215,258,505,37601.txt
0,848,339,246,376,37601.txt
0,171,114,261,602,37602.txt
0,786,214,242,504,37602.txt
0,844,359,210,351,37602.txt
0,168,118,256,594,37603.txt
0,786,213,266,506,37603.txt
0,0,225,85,494,37603.txt
0,786,214,265,503,37604.txt
0,170,122,248,595,37604.txt
0,1,197,115,522,37604.txt
0,1143,4,137,686,37604.txt
0,784,213,269,505,37605.txt
0,166,125,244,592,37605.txt
0,0,173,131,545,37605.txt
0,1124,0,156,711,37605.txt
0,164,128,238,588,37606.txt
0,790,210,266,509,37606.txt
0,1108,0,172,713,37606.txt
0,0,174,145,545,37606.txt
0,161,132,233,584,37607.txt
0,1094,0,186,714,37607.txt
0,796,207,262,511,37607.txt
0,0,185,151,534,37607.txt
0,156,135,230,581,37608.txt
0,1076,0,204,714,37608.txt
0,0,187,152,533,37608.txt
0,836,201,221,518,37608.txt
0,806,352,192,362,37608.txt
0,148,135,231,581,37609.txt
0,1062,0,218,714,37609.txt
0,0,189,127,527,37609.txt
0,829,197,226,523,37609.txt
0,835,344,114,336,37609.txt
0,1044,0,236,714,37610.txt
0,0,190,128,527,37610.txt
0,835,194,225,526,37610.txt
0,141,140,229,576,37610.txt
0,834,348,84,320,37610.txt
0,134,143,228,572,37611.txt
0,0,190,127,528,37611.txt
0,1032,1,248,712,37611.txt
0,846,192,218,526,37611.txt
0,826,345,95,352,37611.txt
0,128,142,227,575,37612.txt
0,0,191,130,526,37612.txt
0,891,189,182,528,37612.txt
0,1015,1,265,713,37612.txt
0,822,347,85,354,37612.txt
0,123,142,226,575,37613.txt
0,0,192,138,524,37613.txt
0,1000,1,280,713,37613.txt
0,902,189,176,528,37613.txt
0,814,347,106,352,37613.txt
0,118,144,225,573,37614.txt
0,981,0,299,714,37614.txt
0,0,193,152,523,37614.txt
0,918,190,163,528,37614.txt
0,803,344,97,356,37614.txt
0,112,144,224,572,37615.txt
0,964,0,316,716,37615.txt
0,0,193,165,523,37615.txt
0,794,344,95,354,37615.txt
0,927,190,138,525,37615.txt
0,108,145,221,571,37616.txt
0,945,0,335,715,37616.txt
0,0,194,178,523,37616.txt
0,785,346,99,351,37616.txt
0,935,190,112,330,37616.txt
0,103,150,221,566,37617.txt
0,753,346,140,354,37617.txt
0,0,194,185,523,37617.txt
0,930,0,348,716,37617.txt
0,99,151,219,565,37618.txt
0,734,348,156,352,37618.txt
0,0,194,187,522,37618.txt
0,914,0,364,715,37618.txt
0,95,154,217,561,37619.txt
0,717,351,172,348,37619.txt
0,0,192,190,522,37619.txt
0,894,0,380,716,37619.txt
0,705,352,183,347,37620.txt
0,64,155,244,561,37620.txt
0,878,0,360,714,37620.txt
0,14,246,153,473,37620.txt
0,17,196,167,300,37620.txt
0,698,354,190,344,37621.txt
0,861,0,372,716,37621.txt
0,59,155,248,565,37621.txt
0,694,356,194,342,37622.txt
0,60,158,269,560,37622.txt
0,852,0,390,716,37622.txt
0,692,356,196,342,37623.txt
0,61,160,280,558,37623.txt
0,839,1,288,712,37623.txt
0,1046,192,214,528,37623.txt
0,59,164,301,555,37624.txt
0,690,358,197,339,37624.txt
0,1041,195,232,525,37624.txt
0,824,0,272,715,37624.txt
0,60,169,312,550,37625.txt
0,688,357,196,341,37625.txt
0,1034,197,242,522,37625.txt
0,807,0,276,715,37625.txt
0,688,358,186,338,37626.txt
0,795,0,284,716,37626.txt
0,1033,198,244,520,37626.txt
0,55,170,212,546,37626.txt
0,186,205,188,513,37626.txt
0,778,0,298,716,37627.txt
0,1027,200,228,518,37627.txt
0,43,174,218,542,37627.txt
0,687,358,153,331,37627.txt
0,185,207,196,511,37627.txt
0,1032,201,226,517,37628.txt
0,37,178,217,540,37628.txt
0,764,0,314,716,37628.txt
0,686,358,132,332,37628.txt
0,187,205,199,513,37628.txt
0,1038,202,218,516,37629.txt
0,30,182,216,533,37629.txt
0,744,0,323,716,37629.txt
0,185,205,204,513,37629.txt
0,688,356,118,334,37629.txt
0,1044,199,212,519,37630.txt
0,20,181,221,535,37630.txt
0,182,204,208,514,37630.txt
0,692,356,107,334,37630.txt
0,730,5,331,715,37630.txt
0,13,182,221,535,37631.txt
0,1049,198,208,520,37631.txt
0,176,202,213,516,37631.txt
0,706,1,354,718,37631.txt
0,690,357,98,331,37631.txt
0,5,184,220,534,37632.txt
0,1047,196,210,522,37632.txt
0,173,200,213,518,37632.txt
0,691,7,381,711,37632.txt
0,684,355,96,283,37632.txt
0,1,190,217,529,37633.txt
0,1046,196,212,522,37633.txt
0,177,200,205,519,37633.txt
0,687,8,354,709,37633.txt
0,676,355,96,268,37633.txt
0,1056,193,204,525,37634.txt
0,0,190,214,528,37634.txt
0,205,201,186,517,37634.txt
0,675,15,356,704,37634.txt
0,664,355,94,261,37634.txt
0,0,192,205,528,37635.txt
0,1070,196,192,522,37635.txt
0,232,199,174,519,37635.txt
0,662,18,354,699,37635.txt
0,654,356,92,269,37635.txt
0,1083,196,186,522,37636.txt
0,0,194,196,525,37636.txt
0,268,199,154,519,37636.txt
0,644,20,348,696,37636.txt
0,648,356,70,283,37636.txt
0,0,192,186,527,37637.txt
0,1093,196,186,524,37637.txt
0,286,200,153,516,37637.txt
0,634,20,338,698,37637.txt
0,0,196,178,523,37638.txt
0,1098,194,182,526,37638.txt
0,296,200,159,516,37638.txt
0,610,20,354,697,37638.txt
0,0,198,169,520,37639.txt
0,1104,194,176,524,37639.txt
0,303,199,164,517,37639.txt
0,593,23,383,692,37639.txt
0,0,198,161,520,37640.txt
0,1110,196,170,520,37640.txt
0,303,201,203,516,37640.txt
0,564,22,378,694,37640.txt
0,0,199,156,519,37641.txt
0,1116,196,164,521,37641.txt
0,305,203,242,515,37641.txt
0,562,22,315,694,37641.txt
0,557,606,74,82,37641.txt
0,306,205,270,514,37642.txt
0,0,200,147,517,37642.txt
0,1122,193,158,525,37642.txt
0,549,22,275,694,37642.txt
0,0,202,140,515,37643.txt
0,308,206,295,512,37643.txt
0,1126,196,154,521,37643.txt
0,541,20,222,696,37643.txt
0,308,209,297,509,37644.txt
0,0,205,131,513,37644.txt
0,1132,196,148,521,37644.txt
0,518,18,226,696,37644.txt
0,678,584,64,104,37644.txt
0,310,213,258,505,37645.txt
0,1136,195,144,523,37645.txt
0,496,21,242,691,37645.txt
0,0,208,122,510,37645.txt
0,1144,196,136,520,37646.txt
0,480,21,250,693,37646.txt
0,0,210,115,507,37646.txt
0,310,213,317,506,37646.txt
0,1149,195,130,522,37647.txt
0,465,24,255,689,37647.txt
0,0,212,105,505,37647.txt
0,310,216,266,502,37647.txt
0,1157,193,123,525,37648.txt
0,0,213,97,504,37648.txt
0,322,216,316,503,37648.txt
0,451,24,248,690,37648.txt
0,1162,191,118,525,37649.txt
0,0,226,95,490,37649.txt
0,420,26,276,689,37649.txt
0,331,217,298,501,37649.txt
0,350,29,346,685,37650.txt
0,1168,190,112,527,37650.txt
0,0,225,96,491,37650.txt
0,381,270,220,440,37650.txt
0,446,282,63,202,37650.txt
0,350,26,341,691,37651.txt
0,1174,188,106,531,37651.txt
0,0,220,93,496,37651.txt
0,1178,187,102,533,37652.txt
0,335,29,351,685,37652.txt
0,0,247,95,469,37652.txt
0,329,27,348,691,37653.txt
0,1184,184,96,536,37653.txt
0,0,246,81,474,37653.txt
0,426,551,180,168,37653.txt
0,325,30,341,686,37654.txt
0,1190,186,90,534,37654.txt
0,446,576,156,144,37654.txt
0,313,28,338,688,37655.txt
0,1194,183,86,535,37655.txt
0,471,208,186,510,37655.txt
0,301,27,349,688,37656.txt
0,1200,171,80,547,37656.txt
0,510,207,166,499,37656.txt
0,293,22,342,698,37657.txt
0,484,204,220,475,37657.txt
0,1203,171,76,548,37657.txt
0,508,204,218,495,37658.txt
0,283,18,342,700,37658.txt
0,505,203,238,509,37659.txt
0,278,14,348,704,37659.txt
0,516,204,242,512,37660.txt
0,273,10,325,707,37660.txt
0,484,369,82,269,37660.txt
0,1222,203,58,516,37660.txt
0,534,202,238,516,37661.txt
0,270,4,317,716,37661.txt
0,470,364,100,325,37661.txt
0,532,201,248,519,37662.txt
0,262,3,268,713,37662.txt
0,456,370,113,292,37662.txt
0,544,200,246,520,37663.txt
0,256,2,230,714,37663.txt
0,438,372,127,306,37663.txt
0,547,200,250,517,37664.txt
0,244,3,232,712,37664.txt
0,412,374,155,309,37664.txt
0,547,198,255,519,37665.txt
0,408,373,160,315,37665.txt
0,228,3,234,711,37665.txt
0,545,195,261,522,37666.txt
0,407,372,165,317,37666.txt
0,215,3,235,711,37666.txt
0,546,192,263,526,37667.txt
0,407,371,158,317,37667.txt
0,201,4,236,710,37667.txt
0,550,190,258,528,37668.txt
0,184,7,239,705,37668.txt
0,408,370,144,319,37668.txt
0,558,186,248,533,37669.txt
0,154,11,258,702,37669.txt
0,407,370,133,316,37669.txt
0,563,180,237,538,37670.txt
0,411,368,115,319,37670.txt
0,122,11,278,702,37670.txt
0,574,175,219,544,37671.txt
0,76,14,311,701,37671.txt
0,408,368,110,319,37671.txt
0,591,168,196,551,37672.txt
0,64,18,308,696,37672.txt
0,398,367,114,320,37672.txt
0,611,164,174,552,37673.txt
0,37,21,322,694,37673.txt
0,388,367,117,320,37673.txt
0,636,156,150,562,37674.txt
0,38,26,309,689,37674.txt
0,379,366,119,319,37674.txt
0,656,153,136,565,37675.txt
0,26,30,308,684,37675.txt
0,368,366,118,320,37675.txt
0,11,32,313,683,37676.txt
0,669,150,131,565,37676.txt
0,342,366,142,320,37676.txt
0,2,32,302,684,37677.txt
0,680,144,132,572,37677.txt
0,323,368,158,320,37677.txt
0,1,36,291,682,37678.txt
0,690,142,131,577,37678.txt
0,305,368,169,320,37678.txt
0,2,37,274,679,37679.txt
0,290,368,178,320,37679.txt
0,700,144,132,571,37679.txt
0,282,372,180,316,37680.txt
0,0,40,261,677,37680.txt
0,704,141,146,576,37680.txt
0,276,374,184,314,37681.txt
0,709,142,167,576,37681.txt
0,0,42,250,674,37681.txt
0,717,144,180,574,37682.txt
0,271,374,189,315,37682.txt
0,0,44,243,674,37682.txt
0,269,376,189,315,37683.txt
0,723,145,200,572,37683.txt
0,0,44,227,671,37683.txt
0,266,376,191,316,37684.txt
0,728,146,213,572,37684.txt
0,0,43,217,670,37684.txt
0,266,376,186,316,37685.txt
0,736,144,216,576,37685.txt
0,0,44,208,670,37685.txt
0,738,145,228,573,37686.txt
0,266,375,175,316,37686.txt
0,0,42,198,673,37686.txt
0,738,145,239,572,37687.txt
0,266,375,167,317,37687.txt
0,1,41,189,672,37687.txt
0,734,147,254,571,37688.txt
0,266,374,152,318,37688.txt
0,0,33,181,680,37688.txt
0,732,150,268,568,37689.txt
0,268,373,132,320,37689.txt
0,0,43,173,669,37689.txt
0,734,148,277,572,37690.txt
0,267,371,120,322,37690.txt
0,0,38,165,674,37690.txt
0,735,152,282,568,37691.txt
0,264,372,116,320,37691.txt
0,0,47,156,665,37691.txt
0,738,154,286,566,37692.txt
0,258,371,114,320,37692.txt
0,0,34,147,678,37692.txt
0,740,159,290,561,37693.txt
0,252,370,116,322,37693.txt
0,0,51,135,661,37693.txt
0,744,162,291,558,37694.txt
0,239,370,121,322,37694.txt
0,0,37,123,672,37694.txt
0,745,166,298,554,37695.txt
0,213,370,141,322,37695.txt
0,0,36,112,677,37695.txt
0,192,371,157,321,37696.txt
0,746,170,279,548,37696.txt
0,0,53,101,661,37696.txt
0,173,373,169,319,37697.txt
0,750,174,268,545,37697.txt
0,0,37,88,677,37697.txt
0,755,178,261,542,37698.txt
0,160,374,174,318,37698.txt
0,0,42,72,673,37698.txt
0,150,375,178,316,37699.txt
0,777,182,241,537,37699.txt
0,0,88,58,629,37699.txt
0,796,183,220,537,37700.txt
0,142,378,182,312,37700.txt
0,0,111,48,600,37700.txt
0,140,378,181,313,37701.txt
0,818,184,201,535,37701.txt
0,135,379,185,312,37702.txt
0,842,186,190,533,37702.txt
0,132,378,187,312,37703.txt
0,872,187,181,532,37703.txt
0,130,378,181,312,37704.txt
0,905,188,166,530,37704.txt
0,922,190,166,527,37705.txt
0,129,377,173,312,37705.txt
0,930,190,172,527,37706.txt
0,128,376,162,312,37706.txt
0,938,190,176,528,37707.txt
0,127,375,151,313,37707.txt
0,948,191,179,527,37708.txt
0,129,374,135,314,37708.txt
0,958,194,187,524,37709.txt
0,129,374,127,314,37709.txt
0,964,195,208,524,37710.txt
0,128,372,121,316,37710.txt
0,119,372,124,316,37711.txt
0,970,196,276,523,37711.txt
0,970,198,300,522,37712.txt
0,108,371,130,316,37712.txt
0,968,199,310,521,37713.txt
0,98,371,133,316,37713.txt
0,969,200,310,519,37714.txt
0,80,370,146,317,37714.txt
0,976,200,260,518,37715.txt
0,52,370,168,318,37715.txt
0,974,201,264,517,37716.txt
0,29,371,184,316,37716.txt
0,980,199,260,521,37717.txt
0,11,373,199,315,37717.txt
0,995,198,246,520,37718.txt
0,0,375,205,313,37718.txt
0,1012,197,229,521,37719.txt
0,0,376,195,312,37719.txt
0,1030,196,214,521,37720.txt
0,0,376,189,314,37720.txt
0,0,378,184,314,37721.txt
0,1046,194,202,524,37721.txt
0,0,378,183,314,37722.txt
0,1073,192,198,526,37722.txt
0,0,378,180,314,37723.txt
0,1090,191,190,527,37723.txt
0,1095,191,185,527,37724.txt
0,0,376,177,316,37724.txt
0,1103,191,176,526,37725.txt
0,0,375,169,317,37725.txt
0,1236,113,44,600,37725.txt
0,1110,191,168,526,37726.txt
0,0,373,156,320,37726.txt
0,1235,113,44,593,37726.txt
0,0,372,140,320,37727.txt
0,1117,192,162,525,37727.txt
0,1235,112,44,601,37727.txt
0,1124,194,156,523,37728.txt
0,0,371,126,323,37728.txt
0,1232,112,48,598,37728.txt
0,0,370,120,322,37729.txt
0,1132,198,148,520,37729.txt
0,1230,106,50,601,37729.txt
0,0,370,112,322,37730.txt
0,1142,198,138,518,37730.txt
0,0,368,107,324,37731.txt
0,1156,202,124,515,37731.txt
0,1230,110,50,592,37731.txt
0,0,368,100,325,37732.txt
0,1167,187,112,532,37732.txt
0,1225,110,54,593,37732.txt
0,0,368,95,324,37733.txt
0,1178,112,102,605,37733.txt
0,0,368,89,325,37734.txt
0,1187,113,93,606,37734.txt
0,1190,114,90,606,37735.txt
0,0,366,82,328,37735.txt
0,0,367,74,326,37736.txt
0,1190,112,90,606,37736.txt
0,1184,110,96,610,37737.txt
0,0,362,70,334,37737.txt
0,1180,112,100,606,37738.txt
0,0,360,61,334,37738.txt
0,1176,110,104,610,37739.txt
0,0,308,52,386,37739.txt
0,1168,110,112,610,37740.txt
0,0,317,46,377,37740.txt
0,1165,107,115,610,37741.txt
0,0,366,39,334,37741.txt
0,1152,106,128,609,37742.txt
0,0,330,35,363,37742.txt
0,1145,102,135,614,37743.txt
0,1140,97,140,619,37744.txt
0,0,420,28,276,37744.txt
0,1134,94,146,622,37745.txt
0,1128,92,152,624,37746.txt
0,1118,89,162,626,37747.txt
0,1112,87,168,628,37748.txt
0,1104,86,176,629,37749.txt
0,1096,85,184,631,37750.txt
0,1090,84,190,632,37751.txt
0,1082,84,198,632,37752.txt
0,1076,84,204,632,37753.txt
0,1066,84,214,633,37754.txt
0,1059,84,221,633,37755.txt
0,1048,84,232,634,37756.txt
0,0,180,46,540,37756.txt
0,1042,85,238,632,37757.txt
0,1034,87,246,630,37758.txt
0,0,194,63,526,37758.txt
0,1024,89,256,628,37759.txt
0,0,192,73,528,37759.txt
0,1014,92,264,625,37760.txt
0,0,194,75,526,37760.txt
0,997,93,280,624,37761.txt
0,0,196,79,524,37761.txt
0,984,95,292,621,37762.txt
0,0,191,73,523,37762.txt
0,972,98,302,620,37763.txt
0,0,198,83,520,37763.txt
0,965,102,308,614,37764.txt
0,0,198,94,522,37764.txt
0,961,105,308,613,37765.txt
0,0,199,101,519,37765.txt
0,958,111,311,603,37766.txt
0,0,200,106,517,37766.txt
0,946,113,324,604,37767.txt
0,0,198,113,519,37767.txt
0,1234,0,46,720,37767.txt
0,934,116,300,600,37768.txt
0,0,197,129,521,37768.txt
0,1224,0,56,705,37768.txt
0,924,116,292,601,37769.txt
0,0,197,134,521,37769.txt
0,1189,0,91,713,37769.txt
0,915,119,286,597,37770.txt
0,0,197,144,521,37770.txt
0,1179,0,101,714,37770.txt
0,0,197,150,522,37771.txt
0,904,119,282,596,37771.txt
0,1160,4,120,705,37771.txt
0,0,196,156,523,37772.txt
0,894,120,270,595,37772.txt
0,1144,0,136,714,37772.txt
0,887,124,256,588,37773.txt
0,0,197,160,522,37773.txt
0,1124,0,156,714,37773.txt
0,0,197,166,521,37774.txt
0,876,124,249,592,37774.txt
0,1113,0,167,716,37774.txt
0,0,197,170,521,37775.txt
0,1102,0,178,715,37775.txt
0,867,126,245,589,37775.txt
0,0,199,177,519,37776.txt
0,859,127,244,589,37776.txt
0,1086,0,194,713,37776.txt
0,0,198,184,521,37777.txt
0,852,129,245,587,37777.txt
0,1066,0,214,714,37777.txt
0,0,200,199,519,37778.txt
0,846,133,252,584,37778.txt
0,1050,0,230,714,37778.txt
0,0,203,219,517,37779.txt
0,1029,0,251,714,37779.txt
0,840,134,253,582,37779.txt
0,0,203,241,516,37780.txt
0,834,136,229,579,37780.txt
0,1008,0,269,715,37780.txt
0,0,206,259,513,37781.txt
0,824,138,210,576,37781.txt
0,988,0,288,715,37781.txt
0,0,208,272,510,37782.txt
0,818,137,190,577,37782.txt
0,968,0,268,713,37782.txt
0,0,212,280,506,37783.txt
0,811,141,189,573,37783.txt
0,895,0,316,715,37783.txt
0,0,215,284,503,37784.txt
0,885,0,304,712,37784.txt
0,806,141,189,574,37784.txt
0,0,217,284,500,37785.txt
0,797,144,189,570,37785.txt
0,878,0,298,711,37785.txt
0,0,217,289,501,37786.txt
0,868,0,296,714,37786.txt
0,792,142,172,574,37786.txt
0,0,218,290,500,37787.txt
0,782,144,169,571,37787.txt
0,861,0,307,713,37787.txt
0,2,218,290,500,37788.txt
0,856,0,304,714,37788.txt
0,777,144,161,570,37788.txt
0,2,218,290,502,37789.txt
0,844,3,316,711,37789.txt
0,769,147,156,566,37789.txt
0,2,218,297,502,37790.txt
0,834,3,321,712,37790.txt
0,762,148,166,568,37790.txt
0,20,217,284,501,37791.txt
0,820,4,325,710,37791.txt
0,756,149,226,565,37791.txt
0,39,219,276,499,37792.txt
0,806,0,337,716,37792.txt
0,747,150,236,564,37792.txt
0,59,217,268,503,37793.txt
0,784,6,329,710,37793.txt
0,740,149,234,566,37793.txt
0,83,216,256,502,37794.txt
0,746,3,373,712,37794.txt
0,736,144,242,571,37794.txt
0,110,217,232,501,37795.txt
0,732,6,368,710,37795.txt
0,135,217,216,501,37796.txt
0,723,0,363,716,37796.txt
0,162,217,194,501,37797.txt
0,714,0,359,714,37797.txt
0,186,217,184,501,37798.txt
0,704,0,348,717,37798.txt
0,193,219,183,497,37799.txt
0,698,0,336,716,37799.txt
0,701,142,67,119,37799.txt
0,198,219,186,498,37800.txt
0,685,1,326,715,37800.txt
0,690,140,65,134,37800.txt
0,199,219,191,498,37801.txt
0,663,0,343,715,37801.txt
0,197,222,210,496,37802.txt
0,662,0,297,717,37802.txt
0,195,223,239,495,37803.txt
0,644,5,320,710,37803.txt
0,1236,152,44,344,37803.txt
0,195,226,258,491,37804.txt
0,633,1,331,716,37804.txt
0,1234,149,46,343,37804.txt
0,193,228,269,490,37805.txt
0,625,0,295,719,37805.txt
0,1230,145,50,348,37805.txt
0,195,230,270,488,37806.txt
0,608,2,290,712,37806.txt
0,1224,145,56,349,37806.txt
0,197,229,277,490,37807.txt
0,604,3,254,712,37807.txt
0,1220,146,60,526,37807.txt
0,200,229,276,489,37808.txt
0,585,0,222,716,37808.txt
0,1212,144,68,532,37808.txt
0,209,228,265,492,37809.txt
0,578,0,224,714,37809.txt
0,1212,142,68,534,37809.txt
0,0,355,41,343,37809.txt
0,219,228,251,491,37810.txt
0,564,1,234,713,37810.txt
0,1208,141,72,545,37810.txt
0,0,328,62,371,37810.txt
0,228,226,244,492,37811.txt
0,544,8,252,705,37811.txt
0,0,320,78,382,37811.txt
0,1204,138,76,544,37811.txt
0,246,225,236,493,37812.txt
0,530,13,260,701,37812.txt
0,0,334,92,370,37812.txt
0,1200,138,80,550,37812.txt
0,264,222,224,496,37813.txt
0,520,18,264,696,37813.txt
0,0,336,98,370,37813.txt
0,1196,138,84,548,37813.txt
0,285,220,211,496,37814.txt
0,0,339,100,369,37814.txt
0,506,29,272,682,37814.txt
0,1192,138,88,557,37814.txt
0,306,220,198,495,37815.txt
0,497,28,278,687,37815.txt
0,0,341,100,365,37815.txt
0,1188,136,92,562,37815.txt
0,679,184,96,521,37815.txt
0,328,218,183,499,37816.txt
0,486,42,264,672,37816.txt
0,1183,135,97,565,37816.txt
0,1,0,106,713,37816.txt
0,664,182,105,524,37816.txt
0,356,214,155,502,37817.txt
0,474,38,260,676,37817.txt
0,1180,132,100,563,37817.txt
0,2,0,100,718,37817.txt
0,652,184,118,524,37817.txt
0,364,214,143,502,37818.txt
0,466,40,252,675,37818.txt
0,1176,128,104,559,37818.txt
0,0,0,111,716,37818.txt
0,633,178,144,536,37818.txt
0,374,214,124,502,37819.txt
0,0,1,143,708,37819.txt
0,454,40,250,676,37819.txt
0,1171,123,108,574,37819.txt
0,624,193,147,521,37819.txt
0,0,4,176,706,37820.txt
0,408,42,278,674,37820.txt
0,1165,118,114,578,37820.txt
0,602,184,166,531,37820.txt
0,382,253,96,463,37820.txt
0,0,2,206,710,37821.txt
0,388,41,278,675,37821.txt
0,1162,113,118,592,37821.txt
0,573,192,193,523,37821.txt
0,0,1,238,711,37822.txt
0,396,41,240,674,37822.txt
0,1160,107,120,602,37822.txt
0,560,190,202,524,37822.txt
0,0,1,264,712,37823.txt
0,387,38,242,678,37823.txt
0,1158,102,122,602,37823.txt
0,554,191,199,523,37823.txt
0,0,1,292,712,37824.txt
0,1153,98,127,608,37824.txt
0,380,40,248,677,37824.txt
0,546,133,202,583,37824.txt
0,0,0,309,712,37825.txt
0,1148,96,132,616,37825.txt
0,364,40,239,676,37825.txt
0,531,138,218,578,37825.txt
0,1,3,330,709,37826.txt
0,1144,94,136,620,37826.txt
0,344,42,224,673,37826.txt
0,520,139,229,578,37826.txt
0,1140,93,140,624,37827.txt
0,0,0,352,714,37827.txt
0,326,45,230,669,37827.txt
0,523,130,200,588,37827.txt
0,1132,90,148,627,37828.txt
0,330,44,217,670,37828.txt
0,9,0,369,714,37828.txt
0,505,120,202,596,37828.txt
0,1122,88,158,629,37829.txt
0,30,0,365,713,37829.txt
0,348,46,188,672,37829.txt
0,503,123,184,593,37829.txt
0,34,355,130,350,37829.txt
0,1110,86,170,631,37830.txt
0,35,337,152,370,37830.txt
0,363,48,163,670,37830.txt
0,79,0,339,715,37830.txt
0,502,161,172,553,37830.txt
0,1102,87,178,630,37831.txt
0,33,340,179,368,37831.txt
0,140,0,298,716,37831.txt
0,378,51,140,664,37831.txt
0,489,149,133,567,37831.txt
0,407,112,251,605,37831.txt
0,1094,86,186,630,37832.txt
0,34,341,214,364,37832.txt
0,194,0,278,715,37832.txt
0,478,160,170,553,37832.txt
0,377,72,134,640,37832.txt
0,35,342,203,364,37833.txt
0,1080,87,200,629,37833.txt
0,220,0,274,714,37833.txt
0,473,172,179,542,37833.txt
0,547,215,128,502,37833.txt
0,37,342,189,365,37834.txt
0,1052,88,228,629,37834.txt
0,191,0,321,715,37834.txt
0,495,218,180,500,37834.txt
0,459,171,136,540,37834.txt
0,1034,89,246,628,37835.txt
0,42,342,181,362,37835.txt
0,174,0,358,714,37835.txt
0,546,226,128,492,37835.txt
0,460,176,116,539,37835.txt
0,1036,90,244,628,37836.txt
0,52,340,185,364,37836.txt
0,548,226,130,492,37836.txt
0,277,0,291,713,37836.txt
0,418,213,157,499,37836.txt
0,1036,92,244,626,37837.txt
0,554,226,130,492,37837.txt
0,65,339,194,368,37837.txt
0,309,0,269,712,37837.txt
0,165,0,217,714,37837.txt
0,1028,93,252,623,37838.txt
0,332,0,268,712,37838.txt
0,564,224,125,496,37838.txt
0,154,58,226,654,37838.txt
0,82,338,190,366,37838.txt
0,1018,93,262,622,37839.txt
0,115,60,285,650,37839.txt
0,353,0,287,713,37839.txt
0,574,223,127,496,37839.txt
0,1006,91,274,624,37840.txt
0,129,56,275,659,37840.txt
0,374,0,288,713,37840.txt
0,576,222,132,466,37840.txt
0,990,90,289,625,37841.txt
0,123,52,277,663,37841.txt
0,372,4,334,708,37841.txt
0,582,220,132,487,37841.txt
0,204,538,64,166,37841.txt
0,380,182,52,90,37841.txt
0,365,184,77,466,37841.txt
0,980,90,300,625,37842.txt
0,117,51,284,663,37842.txt
0,393,1,334,712,37842.txt
0,602,225,136,486,37842.txt
0,343,182,127,499,37842.txt
0,202,542,67,162,37842.txt
0,970,88,310,627,37843.txt
0,114,48,300,666,37843.txt
0,416,2,354,712,37843.txt
0,332,183,156,495,37843.txt
0,588,237,202,477,37843.txt
0,103,46,298,670,37844.txt
0,959,86,306,630,37844.txt
0,424,0,388,714,37844.txt
0,320,183,184,505,37844.txt
0,202,531,102,175,37844.txt
0,88,45,248,669,37845.txt
0,314,180,202,521,37845.txt
0,942,85,300,631,37845.txt
0,442,0,392,716,37845.txt
0,205,476,110,230,37845.txt
0,491,3,355,712,37846.txt
0,78,43,253,676,37846.txt
0,311,177,211,540,37846.txt
0,934,86,278,630,37846.txt
0,225,418,101,256,37846.txt
0,66,46,249,671,37847.txt
0,527,0,322,716,37847.txt
0,296,172,248,546,37847.txt
0,922,84,219,632,37847.txt
0,222,357,103,313,37847.txt
0,58,44,248,670,37848.txt
0,910,83,193,633,37848.txt
0,296,170,244,549,37848.txt
0,579,3,275,717,37848.txt
0,220,334,102,372,37848.txt
0,47,43,247,671,37849.txt
0,588,4,280,712,37849.txt
0,900,81,188,635,37849.txt
0,280,170,246,550,37849.txt
0,203,366,192,343,37849.txt
0,35,43,249,671,37850.txt
0,590,3,287,712,37850.txt
0,890,80,187,636,37850.txt
0,262,171,251,546,37850.txt
0,200,375,220,334,37850.txt
0,202,376,104,332,37850.txt
0,26,44,248,670,37851.txt
0,598,0,289,718,37851.txt
0,872,81,199,635,37851.txt
0,256,173,241,544,37851.txt
0,202,378,216,330,37851.txt
0,204,376,96,332,37851.txt
0,18,46,244,668,37852.txt
0,859,80,215,636,37852.txt
0,604,0,313,715,37852.txt
0,235,172,238,545,37852.txt
0,206,434,202,267,37852.txt
0,6,49,244,665,37853.txt
0,217,170,239,546,37853.txt
0,612,0,334,714,37853.txt
0,818,80,255,636,37853.txt
0,0,51,239,664,37854.txt
0,624,0,339,715,37854.txt
0,214,172,210,535,37854.txt
0,816,84,254,632,37854.txt
0,217,481,217,229,37854.txt
0,0,54,226,660,37855.txt
0,218,169,194,539,37855.txt
0,817,87,248,627,37855.txt
0,660,0,316,714,37855.txt
0,229,463,209,245,37855.txt
0,0,56,218,660,37856.txt
0,207,168,200,540,37856.txt
0,669,3,388,710,37856.txt
0,249,426,189,282,37856.txt
0,0,60,204,656,37857.txt
0,194,169,205,542,37857.txt
0,698,2,368,713,37857.txt
0,334,354,105,348,37857.txt
0,676,273,118,441,37857.txt
0,184,170,208,544,37858.txt
0,0,64,194,651,37858.txt
0,336,344,103,358,37858.txt
0,738,0,340,717,37858.txt
0,703,268,89,440,37858.txt
0,0,67,184,649,37859.txt
0,175,170,211,544,37859.txt
0,742,1,341,716,37859.txt
0,337,335,102,366,37859.txt
0,728,242,72,470,37859.txt
0,0,70,174,645,37860.txt
0,162,172,218,544,37860.txt
0,342,334,102,366,37860.txt
0,732,8,365,708,37860.txt
0,0,70,165,646,37861.txt
0,162,174,212,543,37861.txt
0,351,334,104,366,37861.txt
0,799,19,302,696,37861.txt
0,740,86,96,622,37861.txt
0,0,69,156,645,37862.txt
0,146,176,220,540,37862.txt
0,358,334,109,368,37862.txt
0,806,19,309,699,37862.txt
0,730,84,126,630,37862.txt
0,0,68,148,647,37863.txt
0,105,180,255,538,37863.txt
0,814,22,315,696,37863.txt
0,366,334,122,367,37863.txt
0,718,82,148,634,37863.txt
0,98,182,255,536,37864.txt
0,0,67,140,648,37864.txt
0,829,26,307,692,37864.txt
0,359,336,158,366,37864.txt
0,702,82,156,634,37864.txt
0,794,206,108,462,37864.txt
0,366,336,173,367,37865.txt
0,850,30,290,688,37865.txt
0,0,69,130,646,37865.txt
0,120,183,226,534,37865.txt
0,689,82,163,636,37865.txt
0,790,204,126,460,37865.txt
0,368,336,189,368,37866.txt
0,863,33,286,684,37866.txt
0,127,187,213,530,37866.txt
0,663,82,164,634,37866.txt
0,0,69,121,646,37866.txt
0,788,204,152,511,37866.txt
0,370,338,198,364,37867.txt
0,635,85,180,630,37867.txt
0,123,190,214,526,37867.txt
0,894,34,280,685,37867.txt
0,790,207,168,510,37867.txt
0,0,73,111,640,37867.txt
0,604,88,200,628,37868.txt
0,792,209,180,505,37868.txt
0,920,34,278,684,37868.txt
0,372,340,205,364,37868.txt
0,128,191,206,526,37868.txt
0,0,73,104,643,37868.txt
0,935,35,286,682,37869.txt
0,574,91,222,626,37869.txt
0,790,210,198,506,37869.txt
0,373,340,207,364,37869.txt
0,126,191,203,526,37869.txt
0,0,74,99,640,37869.txt
0,946,38,295,680,37870.txt
0,375,342,207,362,37870.txt
0,790,212,214,504,37870.txt
0,544,96,249,621,37870.txt
0,124,190,208,527,37870.txt
0,0,56,91,652,37870.txt
0,958,39,302,677,37871.txt
0,528,98,264,618,37871.txt
0,377,341,209,364,37871.txt
0,788,213,234,503,37871.txt
0,118,192,216,524,37871.txt
0,0,60,84,649,37871.txt
0,967,43,312,674,37872.txt
0,783,214,242,502,37872.txt
0,510,102,278,614,37872.txt
0,382,341,205,364,37872.txt
0,113,190,228,527,37872.txt
0,0,80,80,629,37872.txt
0,974,48,306,668,37873.txt
0,498,107,284,609,37873.txt
0,390,338,189,367,37873.txt
0,110,191,208,527,37873.txt
0,788,212,264,506,37873.txt
0,0,83,73,629,37873.txt
0,980,53,300,663,37874.txt
0,797,213,232,505,37874.txt
0,106,192,198,526,37874.txt
0,482,111,293,604,37874.txt
0,403,336,166,370,37874.txt
0,0,86,68,628,37874.txt
0,988,58,292,657,37875.txt
0,102,193,188,525,37875.txt
0,808,212,223,506,37875.txt
0,458,116,313,600,37875.txt
0,420,365,148,339,37875.txt
0,0,81,62,635,37875.txt
0,994,64,286,651,37876.txt
0,94,192,186,526,37876.txt
0,457,122,317,595,37876.txt
0,818,213,219,505,37876.txt
0,434,364,141,340,37876.txt
0,0,32,55,688,37876.txt
0,1002,68,278,648,37877.txt
0,81,195,194,522,37877.txt
0,456,126,308,590,37877.txt
0,840,212,197,503,37877.txt
0,452,363,128,341,37877.txt
0,0,96,50,614,37877.txt
0,1008,69,272,649,37878.txt
0,72,194,200,522,37878.txt
0,860,209,175,509,37878.txt
0,456,130,302,587,37878.txt
0,467,370,106,334,37878.txt
0,0,132,45,567,37878.txt
0,1014,78,266,640,37879.txt
0,66,195,202,521,37879.txt
0,885,209,165,509,37879.txt
0,457,136,303,580,37879.txt
0,462,380,102,324,37879.txt
0,0,124,40,581,37879.txt
0,1018,82,262,634,37880.txt
0,905,208,160,510,37880.txt
0,60,195,202,521,37880.txt
0,459,139,290,577,37880.txt
0,1028,90,252,626,37881.txt
0,57,196,201,519,37881.txt
0,914,208,164,510,37881.txt
0,466,141,247,576,37881.txt
0,1038,93,242,624,37882.txt
0,51,197,204,520,37882.txt
0,920,208,169,508,37882.txt
0,471,147,206,571,37882.txt
0,1052,99,228,615,37883.txt
0,42,196,207,521,37883.txt
0,477,150,180,568,37883.txt
0,929,207,168,510,37883.txt
0,28,196,217,521,37884.txt
0,1068,100,212,615,37884.txt
0,935,207,172,510,37884.txt
0,460,154,176,561,37884.txt
0,591,459,94,238,37884.txt
0,16,197,226,520,37885.txt
0,944,206,192,510,37885.txt
0,1084,102,196,609,37885.txt
0,447,157,175,562,37885.txt
0,586,440,118,260,37885.txt
0,4,200,233,517,37886.txt
0,440,158,174,560,37886.txt
0,1100,104,180,606,37886.txt
0,951,208,218,509,37886.txt
0,581,341,138,362,37886.txt
0,0,200,232,517,37887.txt
0,431,162,179,552,37887.txt
0,1118,106,162,610,37887.txt
0,958,209,264,509,37887.txt
0,576,335,153,368,37887.txt
0,0,201,228,516,37888.txt
0,420,165,179,550,37888.txt
0,964,208,266,510,37888.txt
0,1134,112,146,605,37888.txt
0,574,336,162,366,37888.txt
0,0,202,223,514,37889.txt
0,403,170,189,544,37889.txt
0,970,209,272,508,37889.txt
0,573,336,166,367,37889.txt
0,1148,109,132,607,37889.txt
0,0,202,218,514,37890.txt
0,972,210,270,506,37890.txt
0,387,174,197,541,37890.txt
0,571,338,171,366,37890.txt
0,1162,111,118,606,37890.txt
0,0,201,212,515,37891.txt
0,344,181,234,539,37891.txt
0,570,338,174,368,37891.txt
0,971,209,272,508,37891.txt
0,1174,113,106,604,37891.txt
0,0,203,206,514,37892.txt
0,971,208,274,510,37892.txt
0,568,338,177,367,37892.txt
0,335,186,239,532,37892.txt
0,1182,113,98,607,37892.txt
0,972,208,269,510,37893.txt
0,0,203,200,514,37893.txt
0,566,338,180,366,37893.txt
0,334,190,236,528,37893.txt
0,1194,133,86,584,37893.txt
0,976,204,266,514,37894.txt
0,336,194,233,524,37894.txt
0,0,202,195,515,37894.txt
0,578,337,168,367,37894.txt
0,1206,144,74,575,37894.txt
0,0,203,189,514,37895.txt
0,983,203,260,515,37895.txt
0,334,198,235,519,37895.txt
0,596,335,150,369,37895.txt
0,1218,169,62,548,37895.txt
0,0,200,182,517,37896.txt
0,350,200,210,516,37896.txt
0,994,201,249,517,37896.txt
0,612,335,134,369,37896.txt
0,1231,168,49,549,37896.txt
0,0,198,178,519,37897.txt
0,1008,197,236,521,37897.txt
0,348,200,208,517,37897.txt
0,623,333,125,370,37897.txt
0,1239,158,40,561,37897.txt
0,0,198,172,519,37898.txt
0,336,202,204,515,37898.txt
0,1021,192,224,526,37898.txt
0,626,332,130,372,37898.txt
0,0,196,169,521,37899.txt
0,324,203,205,515,37899.txt
0,1039,191,206,527,37899.txt
0,634,332,130,370,37899.txt
0,0,196,168,521,37900.txt
0,1064,190,178,529,37900.txt
0,315,202,198,515,37900.txt
0,638,334,142,368,37900.txt
0,303,201,192,517,37901.txt
0,1075,187,170,531,37901.txt
0,0,195,170,522,37901.txt
0,650,333,156,369,37901.txt
0,295,204,188,512,37902.txt
0,1084,186,170,532,37902.txt
0,0,194,171,524,37902.txt
0,660,334,168,369,37902.txt
0,289,207,183,509,37903.txt
0,0,194,160,524,37903.txt
0,1088,185,176,532,37903.txt
0,661,334,184,370,37903.txt
0,284,209,183,507,37904.txt
0,0,193,154,526,37904.txt
0,666,336,196,368,37904.txt
0,1095,184,180,532,37904.txt
0,282,208,176,510,37905.txt
0,677,336,196,368,37905.txt
0,0,193,145,526,37905.txt
0,1099,184,181,533,37905.txt
0,275,213,179,504,37906.txt
0,678,337,202,368,37906.txt
0,0,192,138,526,37906.txt
0,1109,184,171,533,37906.txt
0,274,216,172,502,37907.txt
0,680,339,204,366,37907.txt
0,1114,185,166,532,37907.txt
0,0,191,130,527,37907.txt
0,680,339,206,366,37908.txt
0,269,217,170,501,37908.txt
0,1120,186,160,531,37908.txt
0,0,192,126,525,37908.txt
0,682,339,206,367,37909.txt
0,264,219,169,498,37909.txt
0,1126,187,154,528,37909.txt
0,0,190,124,526,37909.txt
0,685,339,205,367,37910.txt
0,258,222,168,495,37910.txt
0,1132,188,148,527,37910.txt
0,0,190,121,525,37910.txt
0,689,339,202,368,37911.txt
0,251,226,171,490,37911.txt
0,1138,189,142,527,37911.txt
0,0,190,120,525,37911.txt
0,245,229,171,487,37912.txt
0,693,336,199,371,37912.txt
0,1144,189,136,527,37912.txt
0,0,189,117,525,37912.txt
0,235,233,177,484,37913.txt
0,702,337,190,370,37913.txt
0,1149,189,130,529,37913.txt
0,0,186,116,528,37913.txt
0,226,238,180,479,37914.txt
0,716,335,176,372,37914.txt
0,1158,189,122,527,37914.txt
0,0,181,114,533,37914.txt
0,217,240,185,477,37915.txt
0,728,334,164,374,37915.txt
0,1165,192,114,525,37915.txt
0,0,182,112,533,37915.txt
0,207,242,191,476,37916.txt
0,739,333,154,374,37916.txt
0,0,179,110,536,37916.txt
0,1172,193,108,524,37916.txt
0,199,243,189,474,37917.txt
0,750,332,142,374,37917.txt
0,0,184,109,532,37917.txt
0,1178,194,102,523,37917.txt
0,190,244,190,472,37918.txt
0,765,332,129,374,37918.txt
0,0,180,107,534,37918.txt
0,1180,196,100,520,37918.txt
0,183,246,191,470,37919.txt
0,0,184,106,531,37919.txt
0,780,328,116,380,37919.txt
0,173,247,194,469,37920.txt
0,783,330,118,376,37920.txt
0,0,172,104,544,37920.txt
0,168,248,194,464,37921.txt
0,0,174,102,543,37921.txt
0,793,332,116,374,37921.txt
0,156,248,200,466,37922.txt
0,0,172,100,546,37922.txt
0,788,332,142,375,37922.txt
0,148,249,204,467,37923.txt
0,794,332,160,376,37923.txt
0,0,182,99,536,37923.txt
0,140,251,207,464,37924.txt
0,804,334,170,374,37924.txt
0,0,180,97,538,37924.txt
0,134,252,206,462,37925.txt
0,805,334,182,374,37925.txt
0,0,180,97,538,37925.txt
0,127,252,207,462,37926.txt
0,814,336,182,372,37926.txt
0,0,187,96,530,37926.txt
0,122,255,208,458,37927.txt
0,820,336,178,370,37927.txt
0,0,192,95,526,37927.txt
0,117,256,209,458,37928.txt
0,824,336,172,371,37928.txt
0,0,190,94,526,37928.txt
0,115,260,205,454,37929.txt
0,826,335,172,372,37929.txt
0,0,193,93,523,37929.txt
0,831,334,169,374,37930.txt
0,115,263,199,450,37930.txt
0,0,189,90,526,37930.txt
0,111,265,197,448,37931.txt
0,836,333,166,375,37931.txt
0,0,202,89,514,37931.txt
0,108,267,195,446,37932.txt
0,842,333,160,374,37932.txt
0,0,199,90,517,37932.txt
0,108,268,191,444,37933.txt
0,850,332,152,374,37933.txt
0,0,207,86,509,37933.txt
0,107,270,189,440,37934.txt
0,857,332,144,374,37934.txt
0,0,209,84,508,37934.txt
0,105,271,187,439,37935.txt
0,867,332,134,374,37935.txt
0,0,210,82,507,37935.txt
0,103,273,185,435,37936.txt
0,878,331,122,373,37936.txt
0,0,212,81,506,37936.txt
0,880,330,124,374,37937.txt
0,105,274,178,434,37937.txt
0,0,214,79,502,37937.txt
0,882,330,128,376,37938.txt
0,104,273,170,432,37938.txt
0,0,214,78,502,37938.txt
0,103,274,159,427,37939.txt
0,886,329,130,378,37939.txt
0,0,220,77,498,37939.txt
0,102,275,150,425,37940.txt
0,886,329,148,380,37940.txt
0,0,229,75,489,37940.txt
0,93,274,148,426,37941.txt
0,891,329,161,382,37941.txt
0,0,233,74,476,37941.txt
0,890,328,180,384,37942.txt
0,86,274,150,426,37942.txt
0,0,222,72,493,37942.txt
0,80,275,154,426,37943.txt
0,905,328,180,385,37943.txt
0,0,221,71,493,37943.txt
0,69,276,159,426,37944.txt
0,906,328,193,384,37944.txt
0,0,224,69,492,37944.txt
0,60,278,162,424,37945.txt
0,906,327,200,385,37945.txt
0,0,232,67,484,37945.txt
0,910,327,201,386,37946.txt
0,49,278,169,423,37946.txt
0,911,327,201,387,37947.txt
0,40,274,172,425,37947.txt
0,916,325,195,393,37948.txt
0,32,280,173,420,37948.txt
0,918,326,192,394,37949.txt
0,17,280,179,420,37949.txt
0,924,324,189,394,37950.txt
0,0,280,192,418,37950.txt
0,0,280,181,418,37951.txt
0,933,324,182,394,37951.txt
0,933,323,184,396,37952.txt
0,0,281,174,417,37952.txt
0,0,282,172,416,37953.txt
0,937,320,180,400,37953.txt
0,0,284,172,414,37954.txt
0,942,318,176,402,37954.txt
0,0,288,172,409,37955.txt
0,949,317,170,403,37955.txt
0,0,291,170,408,37956.txt
0,955,316,162,404,37956.txt
0,0,293,169,406,37957.txt
0,952,315,168,404,37957.txt
0,0,294,168,404,37958.txt
0,964,314,155,406,37958.txt
0,0,290,163,408,37959.txt
0,966,314,152,406,37959.txt
0,1,289,156,408,37960.txt
0,973,313,148,406,37960.txt
0,1,288,144,409,37961.txt
0,976,312,146,407,37961.txt
0,0,287,135,408,37962.txt
0,978,310,148,408,37962.txt
0,0,290,119,402,37963.txt
0,978,308,155,410,37963.txt
0,0,288,116,408,37964.txt
0,982,308,164,410,37964.txt
0,983,307,184,412,37965.txt
0,1,288,116,408,37965.txt
0,0,288,119,408,37966.txt
0,987,306,196,412,37966.txt
0,988,306,212,412,37967.txt
0,0,290,122,404,37967.txt
0,992,304,220,415,37968.txt
0,0,288,126,408,37968.txt
0,992,302,226,418,37969.txt
0,0,288,129,408,37969.txt
0,994,301,230,419,37970.txt
0,0,288,131,408,37970.txt
0,997,300,230,420,37971.txt
0,0,287,132,409,37971.txt
0,1002,300,228,420,37972.txt
0,0,287,133,409,37972.txt
0,1004,298,233,422,37973.txt
0,0,288,132,407,37973.txt
0,1010,296,230,424,37974.txt
0,0,286,132,409,37974.txt
0,1016,298,224,421,37975.txt
0,0,286,132,408,37975.txt
0,1024,296,216,424,37976.txt
0,0,286,132,409,37976.txt
0,1028,297,212,422,37977.txt
0,0,286,133,409,37977.txt
0,1037,296,200,423,37978.txt
0,0,287,135,407,37978.txt
0,0,288,137,407,37979.txt
0,1040,294,196,425,37979.txt
0,0,288,140,409,37980.txt
0,1048,294,188,425,37980.txt
0,0,289,143,408,37981.txt
0,1055,294,182,425,37981.txt
0,0,290,148,407,37982.txt
0,1060,294,178,424,37982.txt
0,1,290,153,408,37983.txt
0,1065,293,172,426,37983.txt
0,0,291,160,408,37984.txt
0,1070,293,168,426,37984.txt
0,0,291,166,407,37985.txt
0,1074,292,164,427,37985.txt
0,0,290,175,410,37986.txt
0,1074,294,164,424,37986.txt
0,0,290,182,406,37987.txt
0,1076,294,162,424,37987.txt
0,1196,140,84,580,37987.txt
0,0,290,190,408,37988.txt
0,1078,295,160,423,37988.txt
0,1194,142,86,577,37988.txt
0,2,289,198,408,37989.txt
0,1078,296,160,422,37989.txt
0,1184,142,96,578,37989.txt
0,14,287,190,409,37990.txt
0,1075,296,164,423,37990.txt
0,1178,145,102,572,37990.txt
0,28,287,183,409,37991.txt
0,1065,296,174,424,37991.txt
0,1170,146,110,535,37991.txt
0,1062,297,176,422,37992.txt
0,37,288,183,408,37992.txt
0,1160,144,120,556,37992.txt
0,37,290,189,406,37993.txt
0,1059,298,180,421,37993.txt
0,1152,144,128,543,37993.txt
0,43,290,187,408,37994.txt
0,1056,298,182,421,37994.txt
0,1144,145,136,550,37994.txt
0,47,290,189,406,37995.txt
0,1056,298,184,422,37995.txt
0,1139,145,141,561,37995.txt
0,50,291,191,406,37996.txt
0,1056,299,182,420,37996.txt
0,1130,145,150,553,37996.txt
0,54,292,192,405,37997.txt
0,1058,300,180,418,37997.txt
0,1126,145,154,553,37997.txt
0,61,292,190,406,37998.txt
0,1057,302,180,416,37998.txt
0,1118,146,162,573,37998.txt
0,67,294,189,404,37999.txt
0,1056,302,180,416,37999.txt
0,1112,147,168,572,37999.txt
0,71,294,191,405,38000.txt
0,1055,302,180,416,38000.txt
0,1108,147,172,572,38000.txt
0,74,294,194,406,38001.txt
0,1054,301,172,418,38001.txt
0,1100,147,180,571,38001.txt
0,75,294,199,406,38002.txt
0,1054,301,168,417,38002.txt
0,1092,148,188,570,38002.txt
0,0,120,43,590,38002.txt
0,82,293,198,408,38003.txt
0,1054,302,166,416,38003.txt
0,1086,147,194,571,38003.txt
0,0,112,50,596,38003.txt
0,91,292,194,410,38004.txt
0,1080,146,200,572,38004.txt
0,1055,303,160,414,38004.txt
0,0,50,52,666,38004.txt
0,103,290,187,412,38005.txt
0,1076,144,204,574,38005.txt
0,1054,304,154,412,38005.txt
0,0,44,58,670,38005.txt
0,116,288,177,413,38006.txt
0,1075,141,205,577,38006.txt
0,1053,304,154,412,38006.txt
0,0,51,64,664,38006.txt
0,133,286,165,414,38007.txt
0,1066,136,214,580,38007.txt
0,1052,304,152,413,38007.txt
0,0,41,74,668,38007.txt
0,1066,137,214,577,38008.txt
0,150,284,151,417,38008.txt
0,1051,304,148,412,38008.txt
0,0,39,83,670,38008.txt
0,169,282,135,420,38009.txt
0,1058,134,222,581,38009.txt
0,0,35,90,671,38009.txt
0,1047,304,150,412,38009.txt
0,1053,127,227,590,38010.txt
0,177,280,129,422,38010.txt
0,1042,305,152,412,38010.txt
0,0,28,93,688,38010.txt
0,1048,127,232,592,38011.txt
0,182,278,129,424,38011.txt
0,0,26,103,686,38011.txt
0,1038,308,156,408,38011.txt
0,1039,122,240,598,38012.txt
0,0,25,110,686,38012.txt
0,194,277,126,425,38012.txt
0,1036,307,156,410,38012.txt
0,199,276,129,426,38013.txt
0,1035,120,238,596,38013.txt
0,0,27,117,684,38013.txt
0,1033,307,120,411,38013.txt
0,204,276,145,428,38014.txt
0,1026,119,242,599,38014.txt
0,0,26,130,686,38014.txt
0,1031,307,110,411,38014.txt
0,206,276,168,427,38015.txt
0,1022,120,232,600,38015.txt
0,0,26,138,687,38015.txt
0,1028,308,116,410,38015.txt
0,1032,312,70,222,38015.txt
0,206,274,192,430,38016.txt
0,1004,119,246,601,38016.txt
0,0,26,148,687,38016.txt
0,1029,312,62,216,38016.txt
0,1024,306,164,412,38016.txt
0,1004,120,244,600,38017.txt
0,206,274,213,432,38017.txt
0,0,26,160,687,38017.txt
0,1027,313,60,224,38017.txt
0,1000,119,244,600,38018.txt
0,0,26,170,687,38018.txt
0,207,276,222,428,38018.txt
0,1020,308,144,410,38018.txt
0,1024,314,54,218,38018.txt
0,990,118,255,600,38019.txt
0,0,27,180,687,38019.txt
0,207,278,229,426,38019.txt
0,1014,310,132,406,38019.txt
0,1021,318,50,214,38019.txt
0,980,119,266,599,38020.txt
0,209,278,228,426,38020.txt
0,0,30,193,685,38020.txt
0,1007,318,126,400,38020.txt
0,212,277,228,429,38021.txt
0,971,122,274,596,38021.txt
0,0,31,214,684,38021.txt
0,996,328,137,388,38021.txt
0,218,276,225,432,38022.txt
0,958,126,286,593,38022.txt
0,0,31,225,682,38022.txt
0,990,417,144,300,38022.txt
0,226,273,218,434,38023.txt
0,0,30,240,682,38023.txt
0,950,129,292,590,38023.txt
0,970,422,166,296,38023.txt
0,237,272,207,436,38024.txt
0,0,30,258,683,38024.txt
0,944,132,300,586,38024.txt
0,0,30,274,685,38025.txt
0,251,268,193,439,38025.txt
0,937,136,298,582,38025.txt
0,2,27,282,688,38026.txt
0,269,267,175,440,38026.txt
0,928,137,302,583,38026.txt
0,1,26,291,690,38027.txt
0,288,265,155,444,38027.txt
0,917,141,312,576,38027.txt
0,1,26,305,690,38028.txt
0,906,141,322,577,38028.txt
0,309,261,147,449,38028.txt
0,328,260,139,449,38029.txt
0,35,26,283,688,38029.txt
0,901,141,322,577,38029.txt
0,347,258,138,451,38030.txt
0,61,23,265,691,38030.txt
0,891,140,334,578,38030.txt
0,76,21,260,695,38031.txt
0,349,257,151,455,38031.txt
0,886,144,322,574,38031.txt
0,84,20,267,695,38032.txt
0,361,256,151,456,38032.txt
0,874,145,306,573,38032.txt
0,101,19,255,695,38033.txt
0,861,146,297,572,38033.txt
0,365,256,161,457,38033.txt
0,375,255,165,459,38034.txt
0,115,18,251,695,38034.txt
0,855,146,283,573,38034.txt
0,372,256,188,456,38035.txt
0,126,18,252,696,38035.txt
0,848,148,278,568,38035.txt
0,973,433,156,282,38035.txt
0,370,257,202,456,38036.txt
0,141,18,249,696,38036.txt
0,840,148,241,570,38036.txt
0,976,392,154,326,38036.txt
0,370,256,214,460,38037.txt
0,154,18,245,696,38037.txt
0,832,147,294,573,38037.txt
0,973,388,152,328,38037.txt
0,380,254,206,464,38038.txt
0,162,18,249,696,38038.txt
0,828,150,208,568,38038.txt
0,971,391,150,328,38038.txt
0,392,254,201,464,38039.txt
0,169,18,252,696,38039.txt
0,816,148,209,570,38039.txt
0,966,400,146,317,38039.txt
0,404,253,192,465,38040.txt
0,807,148,213,570,38040.txt
0,174,18,260,696,38040.txt
0,922,391,174,325,38040.txt
0,413,250,187,468,38041.txt
0,801,149,218,568,38041.txt
0,172,16,274,698,38041.txt
0,907,433,174,280,38041.txt
0,422,246,174,472,38042.txt
0,794,151,220,567,38042.txt
0,194,16,263,698,38042.txt
0,434,245,165,473,38043.txt
0,196,14,274,700,38043.txt
0,782,152,240,565,38043.txt
0,446,244,154,475,38044.txt
0,211,9,271,705,38044.txt
0,774,149,248,568,38044.txt
0,771,150,230,570,38045.txt
0,453,241,149,479,38045.txt
0,222,3,272,711,38045.txt
0,1202,1,78,492,38045.txt
0,762,148,234,572,38046.txt
0,470,239,140,481,38046.txt
0,243,0,263,713,38046.txt
0,1184,0,96,720,38046.txt
0,754,148,242,572,38047.txt
0,496,237,128,483,38047.txt
0,284,2,235,718,38047.txt
0,1163,2,117,714,38047.txt
0,744,148,248,572,38048.txt
0,511,237,127,483,38048.txt
0,288,2,246,713,38048.txt
0,1144,2,136,713,38048.txt
0,516,234,134,485,38049.txt
0,316,0,232,715,38049.txt
0,1126,2,154,714,38049.txt
0,736,146,254,572,38049.txt
0,520,234,146,486,38050.txt
0,1115,2,165,714,38050.txt
0,324,0,234,714,38050.txt
0,730,143,262,576,38050.txt
0,1098,1,182,714,38051.txt
0,516,234,184,485,38051.txt
0,336,0,231,713,38051.txt
0,726,140,257,580,38051.txt
0,813,376,170,336,38051.txt
0,1078,0,202,714,38052.txt
0,515,234,217,484,38052.txt
0,341,0,233,715,38052.txt
0,716,137,252,580,38052.txt
0,812,376,164,332,38052.txt
0,349,0,234,715,38053.txt
0,1048,0,232,712,38053.txt
0,522,233,237,486,38053.txt
0,708,133,260,587,38053.txt
0,807,378,165,332,38053.txt
0,357,0,237,715,38054.txt
0,556,236,206,480,38054.txt
0,1040,0,240,714,38054.txt
0,698,130,256,586,38054.txt
0,815,385,143,313,38054.txt
0,364,0,246,717,38055.txt
0,569,237,193,480,38055.txt
0,1028,0,252,714,38055.txt
0,685,127,257,589,38055.txt
0,810,385,148,317,38055.txt
0,1012,0,268,713,38056.txt
0,370,0,240,716,38056.txt
0,580,238,182,480,38056.txt
0,680,126,213,589,38056.txt
0,806,383,152,319,38056.txt
0,998,0,282,714,38057.txt
0,378,0,238,716,38057.txt
0,591,235,170,480,38057.txt
0,670,123,182,593,38057.txt
0,800,381,154,328,38057.txt
0,985,0,294,714,38058.txt
0,661,124,182,592,38058.txt
0,604,234,158,480,38058.txt
0,385,0,249,716,38058.txt
0,796,390,150,316,38058.txt
0,955,0,314,714,38059.txt
0,392,0,268,716,38059.txt
0,654,121,180,593,38059.txt
0,617,236,102,380,38059.txt
0,792,383,142,320,38059.txt
0,398,0,278,716,38060.txt
0,647,123,180,591,38060.txt
0,929,0,326,716,38060.txt
0,788,380,132,319,38060.txt
0,628,236,86,388,38060.txt
0,403,1,289,713,38061.txt
0,910,0,335,714,38061.txt
0,638,124,184,590,38061.txt
0,784,380,118,314,38061.txt
0,638,241,114,471,38061.txt
0,890,0,362,715,38062.txt
0,407,0,306,716,38062.txt
0,628,125,187,590,38062.txt
0,649,244,54,272,38062.txt
0,716,369,172,334,38062.txt
0,880,0,374,716,38063.txt
0,410,0,320,716,38063.txt
0,618,126,200,586,38063.txt
0,772,384,98,300,38063.txt
0,853,0,376,716,38064.txt
0,620,128,195,586,38064.txt
0,416,0,320,716,38064.txt
0,698,363,159,332,38064.txt
0,829,0,376,715,38065.txt
0,424,0,334,715,38065.txt
0,614,130,218,580,38065.txt
0,803,0,382,716,38066.txt
0,432,0,332,715,38066.txt
0,544,133,276,584,38066.txt
0,782,0,340,712,38067.txt
0,434,1,362,712,38067.txt
0,736,231,92,465,38067.txt
0,765,0,316,713,38068.txt
0,439,2,370,712,38068.txt
0,734,229,100,465,38068.txt
0,442,0,356,718,38069.txt
0,737,0,304,712,38069.txt
0,720,228,114,457,38069.txt
0,717,0,315,713,38070.txt
0,450,1,356,715,38070.txt
0,664,300,150,388,38070.txt
0,687,0,345,712,38071.txt
0,460,1,346,715,38071.txt
0,655,1,376,712,38072.txt
0,471,2,295,713,38072.txt
0,477,2,273,714,38073.txt
0,628,0,398,715,38073.txt
0,603,1,414,714,38074.txt
0,498,0,240,710,38074.txt
0,570,1,445,713,38075.txt
0,498,128,134,584,38075.txt
0,547,1,168,710,38075.txt
0,548,0,458,717,38076.txt
0,485,138,161,576,38076.txt
0,734,392,268,325,38076.txt
0,518,1,470,713,38077.txt
0,473,139,166,577,38077.txt
0,725,294,252,422,38077.txt
0,494,0,468,716,38078.txt
0,466,138,159,576,38078.txt
0,826,311,154,406,38078.txt
0,453,138,165,574,38079.txt
0,464,2,462,710,38079.txt
0,634,221,306,492,38079.txt
0,846,222,136,496,38079.txt
0,443,2,433,715,38080.txt
0,848,217,130,500,38080.txt
0,441,137,152,539,38080.txt
0,730,20,167,693,38080.txt
0,423,3,396,712,38081.txt
0,862,217,115,500,38081.txt
0,732,12,193,703,38081.txt
0,422,138,144,492,38081.txt
0,410,0,356,716,38082.txt
0,872,216,112,500,38082.txt
0,734,12,200,708,38082.txt
0,404,135,130,513,38082.txt
0,646,450,88,222,38082.txt
0,393,2,319,713,38083.txt
0,711,8,258,706,38083.txt
0,884,209,101,507,38083.txt
0,390,133,111,563,38083.txt
0,888,212,56,82,38083.txt
0,717,10,267,705,38084.txt
0,382,1,288,712,38084.txt
0,608,396,96,290,38084.txt
0,900,212,90,506,38084.txt
0,732,13,266,702,38085.txt
0,338,1,306,713,38085.txt
0,598,363,108,325,38085.txt
0,900,207,98,383,38085.txt
0,750,12,264,704,38086.txt
0,310,2,304,712,38086.txt
0,587,363,110,324,38086.txt
0,917,208,97,371,38086.txt
0,878,206,143,509,38086.txt
0,566,363,126,325,38087.txt
0,267,4,317,712,38087.txt
0,762,13,269,703,38087.txt
0,911,204,122,511,38087.txt
0,546,364,142,324,38088.txt
0,777,15,293,699,38088.txt
0,219,0,345,718,38088.txt
0,922,206,138,514,38088.txt
0,538,366,148,322,38089.txt
0,792,14,298,702,38089.txt
0,127,0,430,717,38089.txt
0,925,204,160,511,38089.txt
0,49,2,506,714,38090.txt
0,534,368,144,322,38090.txt
0,796,12,325,704,38090.txt
0,526,370,150,319,38091.txt
0,798,10,352,705,38091.txt
0,0,1,534,715,38091.txt
0,518,372,158,314,38092.txt
0,802,8,376,708,38092.txt
0,0,1,466,713,38092.txt
0,387,195,162,521,38092.txt
0,510,374,164,310,38093.txt
0,808,8,393,708,38093.txt
0,0,2,422,711,38093.txt
0,358,178,190,537,38093.txt
0,502,374,171,310,38094.txt
0,815,6,401,711,38094.txt
0,0,1,392,715,38094.txt
0,325,168,213,549,38094.txt
0,498,374,172,310,38095.txt
0,0,1,350,714,38095.txt
0,287,122,253,596,38095.txt
0,831,0,396,715,38095.txt
0,484,374,181,310,38096.txt
0,0,1,324,713,38096.txt
0,240,108,279,608,38096.txt
0,835,0,392,714,38096.txt
0,220,105,281,611,38097.txt
0,484,374,173,310,38097.txt
0,0,4,308,709,38097.txt
0,858,2,358,712,38097.txt
0,480,372,164,310,38098.txt
0,216,103,256,612,38098.txt
0,0,3,286,709,38098.txt
0,864,3,360,711,38098.txt
0,210,99,240,616,38099.txt
0,480,370,150,312,38099.txt
0,880,4,346,711,38099.txt
0,0,1,252,713,38099.txt
0,201,96,218,619,38100.txt
0,481,370,135,310,38100.txt
0,0,2,216,706,38100.txt
0,908,3,321,712,38100.txt
0,188,94,196,620,38101.txt
0,966,0,278,719,38101.txt
0,0,3,178,697,38101.txt
0,484,369,118,309,38101.txt
0,178,92,194,623,38102.txt
0,481,367,107,314,38102.txt
0,985,0,278,715,38102.txt
0,0,1,140,702,38102.txt
0,168,88,191,626,38103.txt
0,1008,0,272,715,38103.txt
0,474,366,108,318,38103.txt
0,0,6,107,714,38103.txt
0,154,89,196,626,38104.txt
0,463,366,113,320,38104.txt
0,1027,0,253,716,38104.txt
0,0,0,82,720,38104.txt
0,139,86,201,629,38105.txt
0,1040,0,240,719,38105.txt
0,454,367,114,314,38105.txt
0,0,1,54,712,38105.txt
0,116,86,215,628,38106.txt
0,1056,1,224,712,38106.txt
0,447,366,117,313,38106.txt
0,84,85,235,631,38107.txt
0,1070,2,210,711,38107.txt
0,430,366,131,314,38107.txt
0,41,86,267,630,38108.txt
0,408,367,145,313,38108.txt
0,1081,2,199,710,38108.txt
0,1081,272,88,446,38108.txt
0,11,87,286,629,38109.txt
0,388,368,161,314,38109.txt
0,1097,0,183,713,38109.txt
0,1088,266,92,452,38109.txt
0,0,88,287,629,38110.txt
0,376,369,167,314,38110.txt
0,1119,2,161,714,38110.txt
0,1095,263,100,454,38110.txt
0,0,89,278,627,38111.txt
0,363,370,175,312,38111.txt
0,1108,2,172,712,38111.txt
0,1106,257,100,461,38111.txt
0,0,90,272,626,38112.txt
0,354,372,179,310,38112.txt
0,1114,252,100,464,38112.txt
0,1148,1,132,713,38112.txt
0,0,90,268,626,38113.txt
0,348,373,184,310,38113.txt
0,1120,220,102,499,38113.txt
0,1163,0,117,720,38113.txt
0,0,90,267,626,38114.txt
0,344,375,188,309,38114.txt
0,1122,191,158,526,38114.txt
0,1188,0,92,720,38114.txt
0,340,376,192,309,38115.txt
0,0,89,265,627,38115.txt
0,1122,185,158,532,38115.txt
0,1204,0,76,720,38115.txt
0,338,376,192,310,38116.txt
0,0,89,254,627,38116.txt
0,1120,182,160,534,38116.txt
0,1224,4,56,711,38116.txt
0,0,88,251,628,38117.txt
0,334,376,190,310,38117.txt
0,1127,179,153,538,38117.txt
0,335,376,179,308,38118.txt
0,1,84,256,633,38118.txt
0,1136,175,144,541,38118.txt
0,0,84,241,633,38119.txt
0,336,375,166,311,38119.txt
0,1146,171,134,546,38119.txt
0,336,374,151,312,38120.txt
0,0,83,218,634,38120.txt
0,1167,168,113,548,38120.txt
0,336,373,136,312,38121.txt
0,0,80,190,639,38121.txt
0,1185,166,95,554,38121.txt
0,0,76,156,644,38122.txt
0,336,373,124,313,38122.txt
0,1206,163,74,557,38122.txt
0,0,72,136,644,38123.txt
0,338,373,114,313,38123.txt
0,1220,160,60,556,38123.txt
0,336,372,110,314,38124.txt
0,0,54,128,660,38124.txt
0,1224,153,56,527,38124.txt
0,326,372,113,314,38125.txt
0,0,76,120,628,38125.txt
0,1230,158,50,350,38125.txt
0,308,373,124,313,38126.txt
0,0,68,111,643,38126.txt
0,1236,174,44,480,38126.txt
0,286,375,139,310,38127.txt
0,0,64,101,648,38127.txt
0,267,374,154,310,38128.txt
0,252,376,161,310,38129.txt
0,243,378,165,306,38130.txt
0,235,381,167,304,38131.txt
0,230,382,164,302,38132.txt
0,0,72,60,624,38132.txt
0,228,383,163,301,38133.txt
0,0,100,50,606,38133.txt
0,225,376,163,308,38134.txt
0,0,122,40,584,38134.txt
0,222,382,164,302,38135.txt
0,220,382,160,303,38136.txt
0,219,382,152,303,38137.txt
0,218,382,140,302,38138.txt
0,219,380,126,302,38139.txt
0,218,380,119,304,38140.txt
0,218,379,111,306,38141.txt
0,208,378,116,307,38142.txt
0,197,377,121,307,38143.txt
0,188,378,124,306,38144.txt
0,174,377,132,307,38145.txt
0,146,377,152,307,38146.txt
0,126,378,168,306,38147.txt
0,105,378,183,308,38148.txt
0,92,380,188,304,38149.txt
0,0,207,45,494,38149.txt
0,84,380,192,306,38150.txt
0,0,220,47,478,38150.txt
0,77,382,194,304,38151.txt
0,73,383,195,304,38152.txt
0,0,230,47,467,38152.txt
0,72,382,194,306,38153.txt
0,0,227,52,486,38153.txt
0,72,382,190,306,38154.txt
0,0,227,60,493,38154.txt
0,72,382,180,304,38155.txt
0,0,228,85,492,38155.txt
0,71,380,171,308,38156.txt
0,0,231,116,489,38156.txt
0,74,378,155,306,38157.txt
0,0,233,125,487,38157.txt
0,85,378,132,308,38158.txt
0,1,234,141,485,38158.txt
0,1,236,165,480,38159.txt
0,91,377,119,305,38159.txt
0,0,240,170,476,38160.txt
0,85,376,117,294,38160.txt
0,0,242,183,474,38161.txt
0,80,376,118,295,38161.txt
0,0,244,190,473,38162.txt
0,82,378,110,308,38162.txt
0,0,246,193,470,38163.txt
0,0,246,196,471,38164.txt
0,0,247,195,471,38165.txt
0,0,246,197,473,38166.txt
0,0,244,198,476,38167.txt
0,0,243,198,476,38168.txt
0,0,241,200,479,38169.txt
0,0,240,210,480,38170.txt
0,0,242,210,478,38171.txt
0,3,241,213,479,38172.txt
0,0,441,107,260,38172.txt
0,5,241,219,479,38173.txt
0,0,384,110,310,38173.txt
0,17,240,209,479,38174.txt
0,0,384,110,310,38174.txt
0,39,240,190,480,38175.txt
0,0,382,102,316,38175.txt
0,68,239,169,481,38176.txt
0,0,382,98,314,38176.txt
0,84,238,157,479,38177.txt
0,0,380,105,316,38177.txt
0,1229,6,50,694,38177.txt
0,89,238,155,482,38178.txt
0,0,381,96,313,38178.txt
0,1222,10,58,710,38178.txt
0,96,242,156,478,38179.txt
0,0,379,87,312,38179.txt
0,1212,8,68,712,38179.txt
0,98,242,162,478,38180.txt
0,0,378,85,318,38180.txt
0,1208,2,72,694,38180.txt
0,101,242,177,478,38181.txt
0,0,378,79,318,38181.txt
0,1200,0,80,720,38181.txt
0,100,243,202,477,38182.txt
0,0,372,73,302,38182.txt
0,1190,3,90,709,38182.txt
0,101,245,215,475,38183.txt
0,1182,0,98,720,38183.txt
0,0,360,68,342,38183.txt
0,101,245,227,475,38184.txt
0,1172,6,108,712,38184.txt
0,0,333,63,360,38184.txt
0,101,246,237,474,38185.txt
0,1162,2,118,712,38185.txt
0,0,332,60,367,38185.txt
0,100,248,244,471,38186.txt
0,1148,1,132,714,38186.txt
0,100,248,245,471,38187.txt
0,1138,0,142,716,38187.txt
0,100,247,246,473,38188.txt
0,1124,0,156,713,38188.txt
0,100,248,249,470,38189.txt
0,1116,0,164,713,38189.txt
0,0,386,43,322,38189.txt
0,100,247,258,471,38190.txt
0,1106,0,174,716,38190.txt
0,0,383,39,323,38190.txt
0,102,244,253,476,38191.txt
0,1085,0,195,716,38191.txt
0,0,390,34,316,38191.txt
0,106,244,236,476,38192.txt
0,1066,0,214,716,38192.txt
0,110,240,242,480,38193.txt
0,1058,0,222,714,38193.txt
0,118,238,245,481,38194.txt
0,1044,0,236,713,38194.txt
0,125,234,244,484,38195.txt
0,1029,0,251,713,38195.txt
0,137,234,237,486,38196.txt
0,1010,0,270,715,38196.txt
0,152,232,235,486,38197.txt
0,992,0,288,716,38197.txt
0,166,231,220,487,38198.txt
0,972,0,308,715,38198.txt
0,952,0,326,716,38199.txt
0,182,231,215,485,38199.txt
0,195,230,208,488,38200.txt
0,932,0,344,717,38200.txt
0,219,229,186,489,38201.txt
0,914,0,326,714,38201.txt
0,242,228,168,489,38202.txt
0,890,0,299,715,38202.txt
0,256,228,162,490,38203.txt
0,872,0,263,718,38203.txt
0,850,0,263,713,38204.txt
0,261,228,160,490,38204.txt
0,266,229,163,489,38205.txt
0,830,0,266,713,38205.txt
0,272,229,169,491,38206.txt
0,810,0,272,714,38206.txt
0,275,229,191,491,38207.txt
0,792,0,291,714,38207.txt
0,276,227,211,492,38208.txt
0,772,0,313,713,38208.txt
0,278,229,228,490,38209.txt
0,754,0,326,716,38209.txt
0,278,231,244,488,38210.txt
0,738,0,336,715,38210.txt
0,278,230,257,490,38211.txt
0,727,0,327,716,38211.txt
0,278,230,268,490,38212.txt
0,717,0,337,718,38212.txt
0,278,231,275,489,38213.txt
0,698,0,346,716,38213.txt
0,278,231,280,489,38214.txt
0,684,0,340,716,38214.txt
0,276,234,282,486,38215.txt
0,666,0,342,716,38215.txt
0,276,236,283,484,38216.txt
0,658,0,314,716,38216.txt
0,279,236,287,484,38217.txt
0,636,0,288,716,38217.txt
0,275,236,294,484,38218.txt
0,616,0,279,716,38218.txt
0,276,236,296,484,38219.txt
0,592,0,274,717,38219.txt
0,279,235,294,485,38220.txt
0,568,0,242,716,38220.txt
0,285,234,289,486,38221.txt
0,536,0,228,712,38221.txt
0,0,37,72,678,38221.txt
0,504,0,241,714,38222.txt
0,296,234,276,485,38222.txt
0,0,29,96,686,38222.txt
0,479,0,245,713,38223.txt
0,306,233,242,484,38223.txt
0,0,2,132,708,38223.txt
0,456,0,253,715,38224.txt
0,0,2,164,710,38224.txt
0,318,233,213,483,38224.txt
0,0,2,207,712,38225.txt
0,429,0,270,715,38225.txt
0,332,231,208,485,38225.txt
0,417,236,97,286,38225.txt
0,388,0,306,716,38226.txt
0,0,0,261,713,38226.txt
0,349,274,181,443,38226.txt
0,0,0,290,713,38227.txt
0,374,0,317,713,38227.txt
0,0,1,323,712,38228.txt
0,347,0,338,712,38228.txt
0,0,1,348,713,38229.txt
0,316,0,355,714,38229.txt
0,297,0,363,714,38230.txt
0,0,1,369,712,38230.txt
0,318,0,331,716,38231.txt
0,15,0,377,712,38231.txt
0,47,1,365,712,38232.txt
0,330,0,295,713,38232.txt
0,514,227,99,363,38232.txt
0,492,226,128,414,38233.txt
0,78,0,417,714,38233.txt
0,345,0,251,717,38233.txt
0,113,1,460,713,38234.txt
0,480,224,146,492,38234.txt
0,484,227,196,492,38235.txt
0,145,0,405,714,38235.txt
0,490,226,210,492,38236.txt
0,170,0,417,714,38236.txt
0,197,1,446,713,38237.txt
0,493,228,223,490,38237.txt
0,173,1,527,715,38238.txt
0,508,227,215,490,38238.txt
0,170,40,165,673,38238.txt
0,131,2,214,716,38239.txt
0,277,2,461,713,38239.txt
0,1212,0,68,720,38239.txt
0,543,288,115,170,38239.txt
0,317,0,462,716,38240.txt
0,90,0,276,714,38240.txt
0,1198,0,82,717,38240.txt
0,52,0,298,713,38241.txt
0,356,0,464,714,38241.txt
0,1182,0,98,711,38241.txt
0,12,0,319,713,38242.txt
0,396,0,458,716,38242.txt
0,1166,0,114,711,38242.txt
0,0,0,315,713,38243.txt
0,451,0,438,716,38243.txt
0,1144,0,136,714,38243.txt
0,0,0,293,714,38244.txt
0,1129,0,151,714,38244.txt
0,482,0,436,716,38244.txt
0,0,0,274,714,38245.txt
0,1106,0,174,716,38245.txt
0,488,0,452,716,38245.txt
0,485,376,197,342,38245.txt
0,1090,0,190,712,38246.txt
0,0,0,261,713,38246.txt
0,494,0,461,716,38246.txt
0,492,266,206,452,38246.txt
0,1070,0,210,713,38247.txt
0,503,252,198,466,38247.txt
0,1,0,255,713,38247.txt
0,614,0,353,713,38247.txt
0,517,221,187,495,38248.txt
0,1054,0,226,712,38248.txt
0,642,0,405,715,38248.txt
0,0,0,248,714,38248.txt
0,530,206,186,512,38249.txt
0,1062,0,218,712,38249.txt
0,1,0,233,714,38249.txt
0,673,1,460,713,38249.txt
0,542,205,200,511,38250.txt
0,0,0,220,716,38250.txt
0,706,1,482,713,38250.txt
0,1040,1,240,710,38250.txt
0,558,204,203,514,38251.txt
0,736,1,532,712,38251.txt
0,0,0,204,716,38251.txt
0,1024,0,256,710,38251.txt
0,574,203,202,515,38252.txt
0,0,0,184,714,38252.txt
0,774,2,506,711,38252.txt
0,1036,38,244,673,38252.txt
0,595,202,183,514,38253.txt
0,0,0,154,711,38253.txt
0,800,1,468,712,38253.txt
0,1074,98,206,612,38253.txt
0,606,202,177,514,38254.txt
0,828,7,450,705,38254.txt
0,1,0,95,705,38254.txt
0,613,202,176,514,38255.txt
0,849,2,430,713,38255.txt
0,618,199,176,517,38256.txt
0,869,0,411,715,38256.txt
0,626,199,175,517,38257.txt
0,881,1,399,713,38257.txt
0,632,199,178,517,38258.txt
0,888,1,392,713,38258.txt
0,638,198,190,519,38259.txt
0,875,2,404,712,38259.txt
0,644,200,214,517,38260.txt
0,860,1,373,715,38260.txt
0,654,200,204,517,38261.txt
0,843,6,404,709,38261.txt
0,660,200,190,517,38262.txt
0,1038,4,242,704,38262.txt
0,828,4,368,711,38262.txt
0,662,201,184,515,38263.txt
0,1072,2,208,710,38263.txt
0,804,6,357,709,38263.txt
0,663,202,178,515,38264.txt
0,1094,2,186,718,38264.txt
0,776,6,349,709,38264.txt
0,664,204,168,513,38265.txt
0,756,3,322,709,38265.txt
0,1118,2,162,714,38265.txt
0,722,2,314,710,38266.txt
0,1139,2,141,708,38266.txt
0,662,244,164,474,38266.txt
0,660,2,327,712,38267.txt
0,1156,0,124,705,38267.txt
0,651,4,310,712,38268.txt
0,1184,0,96,720,38268.txt
0,656,1,288,715,38269.txt
0,1204,6,76,487,38269.txt
0,658,2,269,713,38270.txt
0,644,2,277,713,38271.txt
0,624,2,296,714,38272.txt
0,725,343,208,373,38272.txt
0,608,5,280,709,38273.txt
0,700,194,243,523,38273.txt
0,580,5,304,710,38274.txt
0,712,193,238,524,38274.txt
0,553,6,336,709,38275.txt
0,756,191,200,525,38275.txt
0,804,187,161,528,38276.txt
0,528,11,359,704,38276.txt
0,790,186,184,531,38277.txt
0,508,2,360,715,38277.txt
0,792,184,192,531,38278.txt
0,488,6,378,708,38278.txt
0,800,184,187,531,38279.txt
0,471,2,373,714,38279.txt
0,806,184,194,532,38280.txt
0,456,1,374,714,38280.txt
0,813,184,192,531,38281.txt
0,440,2,371,714,38281.txt
0,822,183,190,532,38282.txt
0,427,1,358,714,38282.txt
0,830,181,192,535,38283.txt
0,404,1,360,713,38283.txt
0,837,183,209,532,38284.txt
0,380,0,353,715,38284.txt
0,845,180,226,538,38285.txt
0,365,0,343,715,38285.txt
0,852,180,238,537,38286.txt
0,333,0,309,714,38286.txt
0,860,181,241,536,38287.txt
0,314,1,301,711,38287.txt
0,868,180,244,538,38288.txt
0,307,1,288,712,38288.txt
0,872,180,238,538,38289.txt
0,283,2,296,712,38289.txt
0,874,178,240,540,38290.txt
0,266,2,297,712,38290.txt
0,874,178,245,540,38291.txt
0,247,2,301,713,38291.txt
0,874,176,256,542,38292.txt
0,224,2,308,712,38292.txt
0,871,171,267,547,38293.txt
0,215,2,302,712,38293.txt
0,873,168,271,550,38294.txt
0,201,4,303,709,38294.txt
0,876,165,277,552,38295.txt
0,178,0,306,716,38295.txt
0,895,161,264,556,38296.txt
0,141,0,336,715,38296.txt
0,0,40,60,676,38296.txt
0,904,159,260,558,38297.txt
0,122,0,344,715,38297.txt
0,0,42,63,674,38297.txt
0,930,156,242,561,38298.txt
0,102,0,358,716,38298.txt
0,0,42,76,672,38298.txt
0,948,155,238,565,38299.txt
0,90,1,349,712,38299.txt
0,0,40,85,676,38299.txt
0,960,153,238,565,38300.txt
0,72,3,348,710,38300.txt
0,0,44,99,666,38300.txt
0,55,0,333,715,38301.txt
0,970,154,238,564,38301.txt
0,0,49,108,660,38301.txt
0,976,150,232,566,38302.txt
0,30,2,336,711,38302.txt
0,0,42,120,671,38302.txt
0,982,150,239,566,38303.txt
0,4,4,327,709,38303.txt
0,1,41,95,675,38303.txt
0,990,149,231,567,38304.txt
0,1,2,317,709,38304.txt
0,0,38,84,675,38304.txt
0,996,149,242,566,38305.txt
0,0,0,298,714,38305.txt
0,0,57,100,179,38305.txt
0,1003,148,238,568,38306.txt
0,0,1,282,710,38306.txt
0,1010,147,235,569,38307.txt
0,0,1,268,710,38307.txt
0,1016,148,244,568,38308.txt
0,0,2,251,711,38308.txt
0,0,1,236,715,38309.txt
0,1022,148,248,568,38309.txt
0,0,0,224,716,38310.txt
0,1031,145,246,572,38310.txt
0,1039,144,241,573,38311.txt
0,0,0,223,714,38311.txt
0,1045,143,235,574,38312.txt
0,0,0,234,715,38312.txt
0,1054,142,226,576,38313.txt
0,0,0,194,712,38313.txt
0,102,96,156,614,38313.txt
0,1060,142,220,576,38314.txt
0,0,3,202,711,38314.txt
0,73,96,197,615,38314.txt
0,1066,142,214,576,38315.txt
0,70,98,210,616,38315.txt
0,0,4,158,706,38315.txt
0,1080,140,200,576,38316.txt
0,0,4,209,710,38316.txt
0,61,103,228,609,38316.txt
0,1087,138,193,578,38317.txt
0,50,104,252,612,38317.txt
0,0,2,126,709,38317.txt
0,1094,137,186,580,38318.txt
0,49,109,262,606,38318.txt
0,0,1,107,713,38318.txt
0,1100,134,180,583,38319.txt
0,48,111,276,603,38319.txt
0,0,0,96,720,38319.txt
0,1102,133,178,584,38320.txt
0,58,112,274,604,38320.txt
0,0,0,73,720,38320.txt
0,1104,132,176,584,38321.txt
0,105,112,241,604,38321.txt
0,0,12,52,708,38321.txt
0,1102,131,178,586,38322.txt
0,146,114,209,602,38322.txt
0,1098,131,182,587,38323.txt
0,157,117,212,599,38323.txt
0,1096,130,184,587,38324.txt
0,156,120,219,596,38324.txt
0,1092,130,188,587,38325.txt
0,157,120,226,593,38325.txt
0,1090,130,190,586,38326.txt
0,155,126,242,590,38326.txt
0,1086,130,194,586,38327.txt
0,158,130,252,586,38327.txt
0,1082,130,198,586,38328.txt
0,163,132,271,585,38328.txt
0,1078,131,202,586,38329.txt
0,162,136,346,583,38329.txt
0,1076,132,204,584,38330.txt
0,166,141,338,578,38330.txt
0,1072,133,208,584,38331.txt
0,169,144,294,574,38331.txt
0,1068,134,212,583,38332.txt
0,169,148,293,570,38332.txt
0,0,306,39,408,38332.txt
0,1064,135,216,582,38333.txt
0,174,150,296,568,38333.txt
0,0,311,56,398,38333.txt
0,1060,136,220,581,38334.txt
0,177,150,303,568,38334.txt
0,0,312,83,398,38334.txt
0,1056,138,224,579,38335.txt
0,186,152,304,566,38335.txt
0,0,310,103,402,38335.txt
0,1050,142,230,575,38336.txt
0,0,312,121,398,38336.txt
0,182,152,325,566,38336.txt
0,1046,144,234,573,38337.txt
0,0,314,137,396,38337.txt
0,211,151,301,568,38337.txt
0,1039,146,241,571,38338.txt
0,0,315,144,395,38338.txt
0,235,153,287,565,38338.txt
0,1035,148,245,569,38339.txt
0,0,317,151,394,38339.txt
0,263,154,269,563,38339.txt
0,1030,151,250,566,38340.txt
0,1,320,152,392,38340.txt
0,291,151,251,567,38340.txt
0,1026,152,254,566,38341.txt
0,0,320,155,390,38341.txt
0,322,153,232,564,38341.txt
0,1022,154,258,564,38342.txt
0,0,322,158,390,38342.txt
0,353,154,207,564,38342.txt
0,1017,155,260,562,38343.txt
0,390,154,179,564,38343.txt
0,0,322,159,389,38343.txt
0,1012,156,260,562,38344.txt
0,404,156,172,562,38344.txt
0,0,321,159,391,38344.txt
0,1009,160,260,557,38346.txt
0,0,321,160,391,38346.txt
0,416,158,172,558,38346.txt
0,1006,161,254,557,38347.txt
0,0,320,161,392,38347.txt
0,422,160,174,556,38347.txt
0,1004,161,252,557,38348.txt
0,0,320,164,393,38348.txt
0,423,162,198,555,38348.txt
0,1001,162,242,556,38349.txt
0,0,318,172,394,38349.txt
0,423,164,234,554,38349.txt
0,998,162,236,555,38350.txt
0,424,169,258,551,38350.txt
0,14,318,164,394,38350.txt
0,995,162,230,555,38351.txt
0,426,172,268,548,38351.txt
0,36,316,149,396,38351.txt
0,990,163,227,554,38352.txt
0,430,176,272,544,38352.txt
0,58,316,134,398,38352.txt
0,983,164,228,552,38353.txt
0,431,178,278,542,38353.txt
0,64,316,133,398,38353.txt
0,977,164,228,552,38354.txt
0,429,182,287,538,38354.txt
0,74,318,132,394,38354.txt
0,972,164,228,552,38355.txt
0,428,184,290,536,38355.txt
0,80,318,155,394,38355.txt
0,966,164,228,552,38356.txt
0,84,318,176,394,38356.txt
0,434,185,256,534,38356.txt
0,957,164,230,553,38357.txt
0,88,319,195,393,38357.txt
0,432,187,255,531,38357.txt
0,952,164,230,554,38358.txt
0,88,321,212,391,38358.txt
0,441,188,253,530,38358.txt
0,944,165,229,552,38359.txt
0,88,323,230,389,38359.txt
0,460,188,238,531,38359.txt
0,938,166,231,550,38360.txt
0,87,324,235,388,38360.txt
0,482,189,222,529,38360.txt
0,87,325,239,387,38361.txt
0,932,164,238,552,38361.txt
0,501,190,211,527,38361.txt
0,89,324,239,388,38362.txt
0,924,163,242,553,38362.txt
0,526,191,190,526,38362.txt
0,90,326,242,388,38363.txt
0,916,163,250,554,38363.txt
0,552,191,174,525,38363.txt
0,94,327,242,386,38364.txt
0,910,160,252,557,38364.txt
0,580,190,158,527,38364.txt
0,103,328,237,384,38365.txt
0,900,157,264,559,38365.txt
0,590,191,159,526,38365.txt
0,115,326,225,386,38366.txt
0,596,191,162,524,38366.txt
0,894,154,268,564,38366.txt
0,130,324,211,388,38367.txt
0,604,192,162,523,38367.txt
0,888,149,272,567,38367.txt
0,147,324,194,386,38368.txt
0,612,194,168,522,38368.txt
0,877,144,281,574,38368.txt
0,163,321,178,389,38369.txt
0,871,140,290,576,38369.txt
0,618,197,197,520,38369.txt
0,626,200,248,518,38370.txt
0,861,134,290,583,38370.txt
0,181,320,163,391,38370.txt
0,630,202,260,516,38371.txt
0,857,131,286,586,38371.txt
0,199,322,150,388,38371.txt
0,634,202,272,516,38372.txt
0,850,128,282,589,38372.txt
0,222,321,133,390,38372.txt
0,636,205,278,512,38373.txt
0,242,322,120,388,38373.txt
0,850,126,267,591,38373.txt
0,636,205,286,511,38374.txt
0,839,125,263,592,38374.txt
0,259,322,128,390,38374.txt
0,637,205,286,513,38375.txt
0,850,124,209,592,38375.txt
0,265,319,114,393,38375.txt
0,640,208,286,510,38376.txt
0,830,124,222,592,38376.txt
0,264,321,134,390,38376.txt
0,266,323,159,388,38377.txt
0,642,209,280,508,38377.txt
0,828,125,221,591,38377.txt
0,267,324,177,388,38378.txt
0,820,125,226,590,38378.txt
0,636,208,266,510,38378.txt
0,267,324,197,387,38379.txt
0,817,126,227,590,38379.txt
0,642,206,248,512,38379.txt
0,267,328,207,383,38380.txt
0,805,128,239,586,38380.txt
0,655,206,215,512,38380.txt
0,268,330,218,381,38381.txt
0,796,128,248,588,38381.txt
0,668,205,205,513,38381.txt
0,270,331,220,379,38382.txt
0,793,128,246,588,38382.txt
0,686,209,202,509,38382.txt
0,271,334,223,376,38383.txt
0,781,134,255,581,38383.txt
0,701,218,198,496,38383.txt
0,274,334,226,376,38384.txt
0,744,136,294,584,38384.txt
0,734,179,165,526,38384.txt
0,278,334,223,376,38385.txt
0,715,138,316,580,38385.txt
0,283,334,219,376,38386.txt
0,730,142,296,575,38386.txt
0,286,333,216,376,38387.txt
0,730,145,292,572,38387.txt
0,799,550,103,168,38387.txt
0,312,332,189,375,38388.txt
0,717,149,304,567,38388.txt
0,328,329,173,375,38389.txt
0,714,150,296,566,38389.txt
0,347,329,155,374,38390.txt
0,693,152,302,563,38390.txt
0,840,202,147,516,38390.txt
0,364,329,138,372,38391.txt
0,685,151,304,565,38391.txt
0,836,202,152,514,38391.txt
0,385,330,120,370,38392.txt
0,679,150,301,567,38392.txt
0,842,206,162,508,38392.txt
0,671,150,319,568,38393.txt
0,402,329,113,373,38393.txt
0,840,207,180,507,38393.txt
0,832,211,206,504,38394.txt
0,660,149,308,568,38394.txt
0,408,330,117,374,38394.txt
